<?xml version="1.0" encoding="iso-8859-1"?>
<!-- Generator: Adobe Illustrator 15.1.0, SVG Export Plug-In . SVG Version: 6.00 Build 0)  -->
<!DOCTYPE svg PUBLIC "-//W3C//DTD SVG 1.1//EN" "http://www.w3.org/Graphics/SVG/1.1/DTD/svg11.dtd">
<svg version="1.1" id="flash0.ai" xmlns="http://www.w3.org/2000/svg" xmlns:xlink="http://www.w3.org/1999/xlink" x="0px" y="0px"
	 width="42.6px" height="42.5px" viewBox="0 0 42.6 42.5" style="enable-background:new 0 0 42.6 42.5;" xml:space="preserve">
<symbol  id="flash0.ai_x5F_0_x2F_Layer_12_x2F__x3C_Path_x3E__x5F_10" viewBox="-0.039 -11.9 16.844 11.9">
	<g id="Layer_1_16_">

			<radialGradient id="SVGID_1_" cx="-1005.6748" cy="-1158.4761" r="10.8333" gradientTransform="matrix(0.9912 -0.1327 -0.1327 -0.9912 848.9111 -1284.478)" gradientUnits="userSpaceOnUse">
			<stop  offset="0" style="stop-color:#FFFFFF"/>
			<stop  offset="1" style="stop-color:#FFFFFF;stop-opacity:0"/>
		</radialGradient>
		<path style="fill-rule:evenodd;clip-rule:evenodd;fill:url(#SVGID_1_);" d="M15.65-3.55c0.1,0.433,0.083,0.917-0.05,1.45
			c-0.1,0.4-0.267,0.75-0.5,1.05l1.1-1.25c0.333-0.467,0.533-1.2,0.6-2.2c0.034-0.467-0.1-0.933-0.4-1.4l-0.2,1
			c-0.034,0.2-0.1,0.383-0.2,0.55l-0.15,0.2L16-5.3c0.067-0.534-0.05-1.267-0.35-2.2l0.05,1.35c0,0.3-0.117,0.7-0.35,1.2L15-4.35
			c0.133-0.6,0.15-1.15,0.05-1.65c-0.1-0.5-0.216-0.917-0.35-1.25c-0.133,0.6-0.217,1.217-0.25,1.85
			C14.417-5.033,14.267-4.667,14-4.3l-0.35,0.4L13.5-5.95c-0.067-0.8-0.217-1.483-0.45-2.05c-0.133,0.467-0.216,0.967-0.25,1.5
			c-0.033,0.3-0.15,0.683-0.35,1.15L12.1-4.8v-2.15c0-0.667-0.133-1.633-0.4-2.9L11.5-6.9c-0.033,0.8-0.2,1.4-0.5,1.8l-0.3-2.05
			L10.65-6.2c-0.033,0.3-0.133,0.65-0.3,1.05l-0.25,0.5l-1.25-4c0.033,0.733,0,1.483-0.1,2.25C8.683-5.933,8.583-5.467,8.45-5
			l-0.2,0.55L7.45-7.1L7.3-6.35l-0.6,1.9L6.55-5.3c-0.1-0.5-0.133-0.85-0.1-1.05l-0.3,0.6C6.017-5.517,5.917-5.2,5.85-4.8L5.8-4.25
			l-0.1-1.5c0.066-0.6,0.15-1.1,0.25-1.5L5.5-6.4C5.3-6.067,5.133-5.55,5-4.85l-0.15,1c-0.2-0.267-0.383-0.667-0.55-1.2
			C4.1-5.617,4.05-6.267,4.15-7c-0.1,0.233-0.2,0.6-0.3,1.1v2.25c-0.2-0.2-0.533-1.117-1-2.75c-0.3-1.033-0.317-2.25-0.05-3.65
			c0.133-0.733,0.3-1.35,0.5-1.85c-0.233,0.2-0.517,1.25-0.85,3.15c-0.367,1.9-0.4,3.65-0.1,5.25C2.117-3.933,1.933-4.45,1.8-5.05
			C1.667-5.617,1.667-6.3,1.8-7.1C1.633-6.8,1.517-6.283,1.45-5.55C1.417-4.85,1.5-4.017,1.7-3.05C1.267-4.183,1-5.433,0.9-6.8
			c-0.133-1.367,0.117-2.534,0.75-3.5c-0.566,0.433-0.933,1.566-1.1,3.4c-0.167,1.833-0.066,3.167,0.3,4l-0.3-0.5
			c-0.233-0.333-0.4-0.883-0.5-1.65c-0.133,0.333-0.117,1,0.05,2c0.167,1,0.65,1.783,1.45,2.35L1.1-1.35
			c-0.167-0.167-0.3-0.433-0.4-0.8L1.2-1.5c0.133,0.2,0.3,0.333,0.5,0.4L1.35-1.75c-0.133-0.267-0.133-0.5,0-0.7
			c0.167,0.367,0.367,0.717,0.6,1.05c0.267,0.367,0.566,0.6,0.9,0.7C2.65-1,2.467-1.35,2.3-1.75C2.133-2.183,2.067-2.467,2.1-2.6
			l0.7,1.1c0.267,0.467,0.534,0.767,0.8,0.9L3.35-1.5c-0.167-0.467-0.167-0.833,0-1.1L4.2-1.25c0.367,0.5,0.767,0.867,1.2,1.1
			l-0.7-1.2C4.467-1.817,4.367-2.167,4.4-2.4l0.5,0.9c0.233,0.4,0.533,0.733,0.9,1L5.6-1.4C5.5-1.833,5.467-2.217,5.5-2.55L5.95-1.7
			c0.2,0.434,0.6,0.983,1.2,1.65c-0.1-0.1-0.233-0.55-0.4-1.35c-0.167-0.767-0.233-1.333-0.2-1.7L7.3-1.75
			c0.3,0.5,0.633,0.817,1,0.95L7.9-1.4C7.8-1.567,7.767-1.917,7.8-2.45c0-0.233,0.017-0.466,0.05-0.7
			c0.033,0.167,0.217,0.566,0.55,1.2C8.7-1.317,9.183-0.667,9.85,0L9.4-1.3C9.233-1.767,9.217-2.283,9.35-2.85l1,1.05
			c-0.1-0.4-0.15-0.784-0.15-1.15c0-0.4,0.083-0.617,0.25-0.65c0.333,0.7,0.533,1.217,0.6,1.55c0.034,0.367,0.233,0.8,0.6,1.3
			c-0.133-0.467-0.167-0.967-0.1-1.5C11.583-2.817,11.733-3.267,12-3.6c0.133,0.233,0.15,0.65,0.05,1.25l-0.2,1.25l0.7-1.1L13-3.3
			c0.167,0.233,0.2,0.483,0.1,0.75C13-2.117,12.833-1.733,12.6-1.4l0.85-0.75L14.3-3.2c-0.1,0.534-0.316,1.05-0.65,1.55l-0.8,1.2
			l0.6-0.35c0.466-0.267,0.85-0.55,1.15-0.85C15.067-2.083,15.417-2.717,15.65-3.55z"/>
	</g>
</symbol>
<symbol  id="flash0.ai_x5F_0_x2F_Layer_12_x2F__x3C_Path_x3E__x5F_11" viewBox="0.05 -21.373 18.366 21.172">
	<g id="Layer_1_15_">
		<path style="fill-rule:evenodd;clip-rule:evenodd;" d="M16-2.5c-0.696,1.043-1.579,1.81-2.65,2.3c0.5-0.208,1-0.475,1.5-0.8
			c2.7-1.867,3.867-4.717,3.5-8.55c-0.3-3.2-1.417-6.034-3.35-8.5c-1.367-1.733-2.45-2.6-3.25-2.6c-0.767,0.3-1.433,0.333-2,0.1
			c-1.133-0.5-2.05-0.767-2.75-0.8c-0.967-0.1-1.9,0.133-2.8,0.7c-0.4,0.233-1.017,0.3-1.85,0.2c-0.767-0.133-1.483,0.1-2.15,0.7
			c-0.1,0.3-0.15,0.65-0.15,1.05v0.5l0.3-1.05c0.167-0.433,0.417-0.65,0.75-0.65c-0.167,0.333-0.283,0.7-0.35,1.1
			c-0.067,0.233-0.067,0.55,0,0.95l0.1,0.55L1-18.1c0.067-0.4,0.2-0.583,0.4-0.55v0.4l0.35,1.45L2-18.7
			c0.133-0.566,0.333-0.767,0.6-0.6v0.75l0.15,0.8l0.3-1.45c0.133-0.433,0.284-0.483,0.45-0.15L3.45-17.6
			c0,0.434,0.066,0.85,0.2,1.25l0.2,0.5v-2.4c0-0.667,0.25-1.1,0.75-1.3c-0.1,0.4-0.15,0.816-0.15,1.25l0.1,0.9l0.25-1.35
			c0.067-0.333,0.25-0.583,0.55-0.75v1.7c0,0.333,0.117,0.767,0.35,1.3L6-15.75v-2.5c0.033-0.633,0.15-1.05,0.35-1.25l0.05,1
			c0.033,0.3,0.117,0.567,0.25,0.8l0.15,0.2v-1.25c0-0.433,0.083-0.817,0.25-1.15c0.1,0.533,0.3,1.167,0.6,1.9
			c0.2,0.433,0.45,0.883,0.75,1.35l0.4,0.55l-0.65-3.4l0.55,0.75c0.233,0.3,0.5,0.783,0.8,1.45l0.35,0.9L9.8-17.35
			c-0.1-0.7-0.267-1.267-0.5-1.7c-0.233-0.467-0.216-0.617,0.05-0.45c0.033,0.033,0.35,0.283,0.95,0.75
			c0.067,0.067,0.483,0.183,1.25,0.35c0.667,0.167,1.35,0.65,2.05,1.45c1.167,1.333,2.15,3.367,2.95,6.1
			c0.667,2.4,0.817,4.417,0.45,6.05C16.8-4,16.467-3.233,16-2.5z"/>
	</g>
</symbol>
<symbol  id="flash0.ai_x5F_0_x2F_Layer_12_x2F__x3C_Path_x3E__x5F_17" viewBox="-0.006 -0.55 2.521 0.522">
	<g id="Layer_1_14_">
		<path style="fill-rule:evenodd;clip-rule:evenodd;fill:#FFFFFF;" d="M0.35-0.3c0.8,0.233,1.383,0.316,1.75,0.25
			C2.7-0.15,2.65-0.2,1.95-0.2c-0.367,0-0.917-0.117-1.65-0.35L0.1-0.5C-0.1-0.5-0.017-0.433,0.35-0.3z"/>
	</g>
</symbol>
<symbol  id="flash0.ai_x5F_0_x2F_Layer_12_x2F__x3C_Path_x3E__x5F_20" viewBox="0 -1.118 6.85 1.118">
	<g id="Layer_1_13_">
		<path style="fill-rule:evenodd;clip-rule:evenodd;" d="M0-0.75C0.933-0.25,1.817-0.2,2.65-0.6C2.817-0.7,2.967-0.683,3.1-0.55
			c0.167,0.2,0.367,0.316,0.6,0.35c0.5,0.034,0.983-0.017,1.45-0.15L6.85,0l-0.8-0.4C5.317-0.767,4.283-1,2.95-1.1
			C1.617-1.167,0.633-1.05,0-0.75z"/>
	</g>
</symbol>
<symbol  id="flash0.ai_x5F_0_x2F_Layer_12_x2F__x3C_Path_x3E__x5F_21" viewBox="-0.029 -11.9 16.074 11.9">
	<g id="Layer_1_12_">

			<radialGradient id="SVGID_2_" cx="-275.0791" cy="-293.5137" r="10.3688" gradientTransform="matrix(0.9994 -0.035 -0.035 -0.9994 270.0991 -306.0005)" gradientUnits="userSpaceOnUse">
			<stop  offset="0" style="stop-color:#FFFFFF"/>
			<stop  offset="1" style="stop-color:#FFFFFF;stop-opacity:0"/>
		</radialGradient>
		<path style="fill-rule:evenodd;clip-rule:evenodd;fill:url(#SVGID_2_);" d="M15.25-1.6c0.367-0.433,0.617-1.117,0.75-2.05
			c0.1-0.434,0.033-0.883-0.2-1.35l-0.3,0.95L15.1-3.4l0.25-1.05c0.1-0.5,0.05-1.216-0.15-2.15c0.033,0.367,0.017,0.8-0.05,1.3
			C15.117-5,14.967-4.633,14.7-4.2l-0.4,0.55c0.167-0.533,0.233-1.05,0.2-1.55s-0.1-0.917-0.2-1.25c-0.2,0.567-0.35,1.15-0.45,1.75
			c-0.067,0.367-0.233,0.7-0.5,1l-0.4,0.35c0.066-0.566,0.1-1.217,0.1-1.95c0-0.767-0.083-1.45-0.25-2.05
			c-0.167,0.467-0.3,0.95-0.4,1.45c-0.033,0.3-0.183,0.65-0.45,1.05l-0.4,0.5L11.8-6.4c0.034-0.633,0-1.567-0.1-2.8l-0.45,2.8
			c-0.067,0.467-0.2,0.883-0.4,1.25l-0.25,0.4V-5.7l-0.15-1l-0.1,0.9c-0.033,0.267-0.167,0.583-0.4,0.95L9.65-4.4l-0.8-3.9
			c-0.033,0.667-0.133,1.367-0.3,2.1L7.9-4.35l-0.5-2.6L6.45-4.5l-0.1-0.85c-0.033-0.467-0.033-0.8,0-1L6-5.85
			c-0.133,0.2-0.25,0.5-0.35,0.9l-0.1,0.5L5.6-5.9c0.1-0.533,0.233-1,0.4-1.4L5.45-6.5c-0.2,0.3-0.4,0.783-0.6,1.45L4.6-4.1
			C4.433-4.367,4.3-4.783,4.2-5.35C4.067-5.883,4.083-6.5,4.25-7.2C4.117-7,3.983-6.65,3.85-6.15L3.6-4
			C3.433-4.233,3.217-5.15,2.95-6.75c-0.3-1.567,0.017-3.283,0.95-5.15C3.667-11.767,3.283-10.8,2.75-9
			C2.217-7.233,2.033-5.583,2.2-4.05l-0.4-1.5C1.733-6.117,1.8-6.767,2-7.5C1.833-7.233,1.683-6.767,1.55-6.1
			c-0.133,0.7-0.133,1.517,0,2.45C1.217-4.75,1.067-5.967,1.1-7.3c0.033-1.333,0.383-2.434,1.05-3.3C1.55-10.2,1.1-9.133,0.8-7.4
			C0.467-5.667,0.433-4.383,0.7-3.55L0.45-4.1c-0.167-0.333-0.267-0.867-0.3-1.6C-0.017-5.4-0.067-4.767,0-3.8
			c0.067,0.966,0.45,1.75,1.15,2.35L0.8-2.1C0.667-2.3,0.55-2.567,0.45-2.9L0.9-2.25C1.033-2.05,1.183-1.9,1.35-1.8L1.1-2.45
			C1-2.717,1.017-2.95,1.15-3.15l0.5,1.1C1.817-1.717,2.067-1.467,2.4-1.3C2.233-1.6,2.083-1.95,1.95-2.35
			c-0.1-0.433-0.133-0.717-0.1-0.85L2.4-2.1c0.233,0.467,0.467,0.783,0.7,0.95l-0.15-0.9c-0.1-0.434-0.067-0.784,0.1-1.05
			c0.167,0.4,0.4,0.85,0.7,1.35c0.3,0.533,0.633,0.933,1,1.2l-0.5-1.2c-0.2-0.467-0.283-0.8-0.25-1l0.4,0.9
			c0.2,0.367,0.467,0.7,0.8,1L5.1-1.7c-0.067-0.433-0.067-0.816,0-1.15c0.1,0.167,0.217,0.467,0.35,0.9C5.583-1.55,5.9-1,6.4-0.3
			C6.333-0.4,6.267-0.833,6.2-1.6C6.1-2.367,6.083-2.917,6.15-3.25L6.7-1.9c0.267,0.5,0.566,0.833,0.9,1L7.3-1.5
			C7.2-1.667,7.183-2,7.25-2.5c0.033-0.233,0.067-0.45,0.1-0.65L7.8-2C8.033-1.333,8.433-0.667,9,0L8.7-1.25
			c-0.133-0.467-0.1-0.967,0.1-1.5L9.6-1.7v-1.1c0.033-0.367,0.133-0.55,0.3-0.55c0.267,0.667,0.4,1.167,0.4,1.5
			c0.034,0.367,0.184,0.8,0.45,1.3C10.717-0.983,10.733-1.467,10.8-2c0.1-0.533,0.3-0.933,0.6-1.2c0.067,0.233,0.033,0.633-0.1,1.2
			L11-0.85l0.75-1l0.55-1c0.133,0.233,0.15,0.483,0.05,0.75l-0.6,1.05l0.9-0.65l0.9-0.95c-0.133,0.5-0.383,0.983-0.75,1.45
			l-0.95,1.05l0.6-0.25c0.5-0.233,0.9-0.467,1.2-0.7c0.5-0.4,0.9-0.967,1.2-1.7c0.033,0.4-0.033,0.85-0.2,1.35
			c-0.133,0.367-0.316,0.684-0.55,0.95L15.25-1.6z"/>
	</g>
</symbol>
<symbol  id="flash0.ai_x5F_0_x2F_Layer_12_x2F__x3C_Path_x3E__x5F_22" viewBox="0 -20.966 16.6 20.716">
	<g id="Layer_1_11_">
		<path style="fill-rule:evenodd;clip-rule:evenodd;" d="M12.45-0.8c2.733-1.5,4.117-4.1,4.15-7.8c0-3.1-0.8-5.9-2.4-8.4
			c-1.133-1.8-2.083-2.733-2.85-2.8c-0.733,0.233-1.367,0.216-1.9-0.05c-1.067-0.566-1.917-0.917-2.55-1.05
			c-0.9-0.167-1.8-0.017-2.7,0.45c-0.4,0.2-1,0.2-1.8,0C1.667-20.65,0.95-20.5,0.25-20c-0.1,0.3-0.167,0.633-0.2,1L0-18.5l0.35-1.05
			c0.2-0.367,0.483-0.534,0.85-0.5c-0.2,0.3-0.367,0.633-0.5,1c-0.067,0.233-0.1,0.55-0.1,0.95l0.05,0.5l0.25-0.75
			c0.1-0.367,0.25-0.533,0.45-0.5L1.3-18.5l0.2,1.45l0.4-1.75c0.2-0.567,0.417-0.75,0.65-0.55l-0.1,0.7l0.05,0.8l0.45-1.35
			c0.167-0.4,0.316-0.433,0.45-0.1l-0.2,1.65c-0.034,0.4-0.017,0.8,0.05,1.2l0.1,0.5L3.6-18.2c0.066-0.667,0.367-1.066,0.9-1.2
			c-0.167,0.4-0.267,0.783-0.3,1.15v0.9l0.35-1.3c0.133-0.3,0.333-0.517,0.6-0.65L5-17.65c-0.033,0.3,0.033,0.733,0.2,1.3l0.25,0.75
			l0.2-2.4c0.1-0.6,0.25-0.983,0.45-1.15c-0.033,0.133-0.033,0.433,0,0.9c0,0.3,0.05,0.567,0.15,0.8l0.1,0.25l0.1-1.25
			c0.033-0.4,0.15-0.75,0.35-1.05c0.067,0.533,0.217,1.15,0.45,1.85c0.133,0.433,0.317,0.883,0.55,1.35l0.3,0.6L7.85-19l0.45,0.75
			c0.2,0.3,0.4,0.783,0.6,1.45l0.3,0.9v-0.9c-0.034-0.7-0.15-1.267-0.35-1.7c-0.167-0.467-0.133-0.6,0.1-0.4
			c0.066,0.033,0.35,0.3,0.85,0.8c0.067,0.1,0.45,0.267,1.15,0.5c0.633,0.2,1.25,0.717,1.85,1.55c1,1.367,1.733,3.4,2.2,6.1
			c0.433,2.434,0.383,4.35-0.15,5.75c-0.233,0.7-0.633,1.4-1.2,2.1c-0.667,0.855-1.476,1.472-2.425,1.85
			C11.616-0.394,12.024-0.577,12.45-0.8z"/>
	</g>
</symbol>
<symbol  id="flash0.ai_x5F_0_x2F_Layer_12_x2F__x3C_Path_x3E__x5F_23" viewBox="0 -16.457 7 16.457">
	<g id="Layer_1_10_">
		<path style="fill-rule:evenodd;clip-rule:evenodd;" d="M1.25-12.15C0.65-10.383,0.233-6.333,0,0l0.3-0.15
			C0.833-0.45,1.417-0.9,2.05-1.5c1.3-1.267,2.233-2.717,2.8-4.35c0.6-1.633,0.767-3.433,0.5-5.4c-0.133-1-0.333-1.833-0.6-2.5
			C4.583-15.25,4.833-16,5.5-16H7l-0.1-0.2c-0.7-0.2-1.267-0.283-1.7-0.25c-0.767,0.067-1.684,0.684-2.75,1.85
			C1.983-13.933,1.583-13.117,1.25-12.15z"/>
	</g>
</symbol>
<symbol  id="flash0.ai_x5F_0_x2F_Layer_12_x2F__x3C_Path_x3E__x5F_33" viewBox="0 -1.167 7.9 1.167">
	<g id="Layer_1_9_">
		<path style="fill-rule:evenodd;clip-rule:evenodd;" d="M0-0.6c0.967,0.434,1.833,0.417,2.6-0.05c0.167-0.1,0.316-0.083,0.45,0.05
			c0.167,0.167,0.367,0.25,0.6,0.25c0.5,0,0.967-0.083,1.4-0.25C5.25-0.6,6.2-0.4,7.9,0C7.833-0.333,7.567-0.583,7.1-0.75
			c-0.733-0.333-2.15-0.467-4.25-0.4C1.55-1.117,0.6-0.933,0-0.6z"/>
	</g>
</symbol>
<symbol  id="flash0.ai_x5F_0_x2F_Layer_12_x2F__x3C_Path_x3E__x5F_34" viewBox="0.011 -11.1 15.644 11.1">
	<g id="Layer_1_8_">

			<radialGradient id="SVGID_3_" cx="-924.8555" cy="-1053.3135" r="10.0996" gradientTransform="matrix(0.9926 -0.1213 -0.1213 -0.9926 795.7681 -1160.314)" gradientUnits="userSpaceOnUse">
			<stop  offset="0" style="stop-color:#FFFFFF"/>
			<stop  offset="1" style="stop-color:#FFFFFF;stop-opacity:0"/>
		</radialGradient>
		<path style="fill-rule:evenodd;clip-rule:evenodd;fill:url(#SVGID_3_);" d="M15.65-4.1c0.033-0.4-0.083-0.833-0.35-1.3l-0.15,0.95
			l-0.35,0.7l0.15-1.1c0.066-0.467-0.034-1.15-0.3-2.05l0.05,1.25c0,0.3-0.117,0.667-0.35,1.1L14-3.95
			c0.133-0.566,0.15-1.083,0.05-1.55L13.8-6.7c-0.167,0.6-0.267,1.184-0.3,1.75c-0.033,0.367-0.167,0.7-0.4,1l-0.35,0.4l-0.1-1.9
			c-0.066-0.767-0.217-1.417-0.45-1.95C12.1-6.967,12.033-6.5,12-6c-0.033,0.3-0.167,0.667-0.4,1.1l-0.3,0.5l0.05-2
			c0-0.633-0.117-1.533-0.35-2.7l-0.2,2.75c-0.033,0.467-0.133,0.883-0.3,1.25l-0.2,0.4L10-6.6L9.95-5.7
			c0,0.233-0.083,0.534-0.25,0.9L9.45-4.3l-1.1-3.75c0,0.7-0.05,1.4-0.15,2.1c-0.067,0.434-0.167,0.867-0.3,1.3L7.7-4.1L7.05-6.6
			L6.3-4.15L6.05-5.9l-0.3,0.5L5.45-4L5.4-5.4c0.033-0.533,0.117-1,0.25-1.4L5.2-5.95C5-5.65,4.833-5.167,4.7-4.5L4.55-3.6
			c-0.167-0.233-0.333-0.617-0.5-1.15c-0.167-0.5-0.2-1.1-0.1-1.8C3.85-6.35,3.75-6,3.65-5.5L3.6-3.4C3.433-3.6,3.133-4.467,2.7-6
			c-0.4-1.533-0.233-3.233,0.5-5.1C3-10.933,2.717-9.967,2.35-8.2C1.983-6.433,1.933-4.817,2.2-3.35C2-3.75,1.85-4.217,1.75-4.75
			c-0.133-0.533-0.133-1.167,0-1.9C1.583-6.383,1.467-5.917,1.4-5.25C1.367-4.583,1.45-3.8,1.65-2.9C1.25-3.933,1-5.1,0.9-6.4
			C0.8-7.667,1.05-8.75,1.65-9.65c-0.533,0.4-0.9,1.467-1.1,3.2c-0.167,1.7-0.066,2.934,0.3,3.7L0.55-3.2
			C0.317-3.533,0.167-4.05,0.1-4.75c-0.133,0.3-0.117,0.917,0.05,1.85c0.133,0.933,0.567,1.667,1.3,2.2l-0.4-0.6
			c-0.167-0.2-0.3-0.467-0.4-0.8L1.1-1.5c0.133,0.2,0.283,0.333,0.45,0.4L1.3-1.7c-0.133-0.233-0.133-0.45,0-0.65
			c0.133,0.333,0.317,0.667,0.55,1c0.2,0.333,0.467,0.55,0.8,0.65c-0.2-0.267-0.367-0.6-0.5-1c-0.167-0.367-0.233-0.633-0.2-0.8
			L2.6-1.45C2.867-1.017,3.117-0.733,3.35-0.6L3.1-1.45c-0.133-0.433-0.117-0.767,0.05-1L3.9-1.2C4.267-0.733,4.633-0.383,5-0.15
			L4.4-1.3C4.167-1.733,4.067-2.05,4.1-2.25L4.55-1.4C4.783-1.033,5.067-0.733,5.4-0.5L5.2-1.3C5.1-1.7,5.083-2.067,5.15-2.4
			l0.4,0.8c0.167,0.4,0.534,0.917,1.1,1.55C6.583-0.15,6.467-0.567,6.3-1.3C6.167-2,6.1-2.533,6.1-2.9l0.7,1.3
			c0.267,0.467,0.567,0.767,0.9,0.9L7.35-1.25c-0.067-0.167-0.1-0.5-0.1-1c0-0.233,0.017-0.45,0.05-0.65l0.55,1.1
			C8.117-1.2,8.567-0.6,9.2,0L8.75-1.15c-0.133-0.467-0.133-0.95,0-1.45l0.9,0.95c-0.066-0.333-0.1-0.684-0.1-1.05
			c-0.033-0.367,0.034-0.566,0.2-0.6c0.3,0.633,0.483,1.117,0.55,1.45c0.034,0.333,0.217,0.733,0.55,1.2
			c-0.1-0.434-0.133-0.9-0.1-1.4C10.817-2.583,10.967-3,11.2-3.3c0.1,0.233,0.117,0.633,0.05,1.2l-0.2,1.15l0.65-1L12.15-3
			c0.133,0.2,0.167,0.433,0.1,0.7l-0.5,1.05l0.8-0.7l0.8-0.95c-0.1,0.5-0.3,0.983-0.6,1.45l-0.8,1.1l0.55-0.3
			c0.433-0.267,0.8-0.533,1.1-0.8c0.433-0.4,0.767-0.983,1-1.75c0.1,0.4,0.066,0.85-0.1,1.35c-0.067,0.367-0.2,0.684-0.4,0.95
			l1-1.15C15.467-2.55,15.65-3.233,15.65-4.1z"/>
	</g>
</symbol>
<symbol  id="flash0.ai_x5F_0_x2F_Layer_12_x2F__x3C_Path_x3E__x5F_35" viewBox="0 -20.011 16.998 20.011">
	<g id="Layer_1_7_">
		<path style="fill-rule:evenodd;clip-rule:evenodd;" d="M13.6-0.9c2.533-1.7,3.65-4.333,3.35-7.9c-0.233-3-1.233-5.65-3-7.95
			c-1.267-1.667-2.284-2.5-3.05-2.5c-0.7,0.3-1.316,0.333-1.85,0.1C7.983-19.65,7.133-19.933,6.5-20c-0.9-0.067-1.767,0.167-2.6,0.7
			c-0.367,0.233-0.933,0.283-1.7,0.15c-0.733-0.1-1.417,0.117-2.05,0.65L0-17.05l0.3-1c0.133-0.4,0.367-0.6,0.7-0.6l-0.35,1
			l0.05,1.4l0.2-0.7c0.067-0.367,0.2-0.533,0.4-0.5v0.35l0.25,1.35l0.3-1.75c0.133-0.533,0.316-0.733,0.55-0.6l-0.05,0.7l0.15,0.8
			l0.3-1.35c0.133-0.433,0.284-0.483,0.45-0.15l-0.1,1.6c0,0.4,0.067,0.8,0.2,1.2l0.15,0.45l0.05-2.2c0-0.667,0.25-1.083,0.75-1.25
			c-0.133,0.4-0.2,0.783-0.2,1.15l0.1,0.9l0.2-1.3c0.1-0.3,0.283-0.534,0.55-0.7l-0.05,1.6c0,0.3,0.1,0.717,0.3,1.25l0.3,0.7
			l0.05-2.35c0.034-0.6,0.133-0.983,0.3-1.15l0.1,0.9c0.033,0.3,0.083,0.55,0.15,0.75l0.15,0.2l0.05-1.2
			c0-0.367,0.083-0.717,0.25-1.05c0.1,0.5,0.284,1.1,0.55,1.8c0.167,0.4,0.383,0.816,0.65,1.25L8.1-15l-0.5-3.15l0.45,0.65
			c0.188,0.25,0.421,0.659,0.7,1.225c-0.06,0.743-0.11,1.518-0.15,2.325C8.467-11.283,9.167-8.967,10.7-7
			c0.633,0.8,1.583,0.533,2.85-0.8c0.667-0.667,1.25-1.417,1.75-2.25c0.567,2.267,0.684,4.15,0.35,5.65
			c-0.2,0.733-0.533,1.433-1,2.1c-0.767,1.1-1.733,1.867-2.9,2.3C12.183-0.133,12.8-0.433,13.6-0.9z"/>
	</g>
</symbol>
<symbol  id="flash0.ai_x5F_0_x2F_Layer_12_x2F__x3C_Path_x3E__x5F_36" viewBox="-0.012 -0.35 2.641 0.356">
	<g id="Layer_1_6_">
		<path style="fill-rule:evenodd;clip-rule:evenodd;fill:#FFFFFF;" d="M2.1-0.05c0.767-0.2,0.7-0.233-0.2-0.1
			c-0.333,0.033-0.867-0.033-1.6-0.2L0.1-0.3C0-0.3-0.033-0.283,0-0.25c0.067,0.033,0.2,0.067,0.4,0.1
			C1.167,0.017,1.733,0.05,2.1-0.05z"/>
	</g>
</symbol>
<symbol  id="flash0.ai_x5F_0_x2F_Layer_12_x2F__x3C_Path_x3E__x5F_4" viewBox="0.005 -0.4 2.576 0.406">
	<g id="Layer_1_18_">
		<path style="fill-rule:evenodd;clip-rule:evenodd;fill:#FFFFFF;" d="M2.25-0.05c0.5-0.167,0.433-0.233-0.2-0.2
			C1.683-0.183,1.117-0.233,0.35-0.4h-0.2c-0.267,0.066-0.167,0.15,0.3,0.25C1.283,0.017,1.883,0.05,2.25-0.05z"/>
	</g>
</symbol>
<symbol  id="flash0.ai_x5F_0_x2F_Layer_12_x2F__x3C_Path_x3E__x5F_46" viewBox="0 -1.167 7.85 1.167">
	<g id="Layer_1_5_">
		<path style="fill-rule:evenodd;clip-rule:evenodd;" d="M0-0.6c0.933,0.4,1.783,0.383,2.55-0.05C2.717-0.75,2.867-0.733,3-0.6
			c0.167,0.167,0.367,0.25,0.6,0.25c0.5,0,0.967-0.083,1.4-0.25c0.2,0,1.15,0.2,2.85,0.6C7.75-0.333,7.467-0.583,7-0.75
			c-0.733-0.333-2.133-0.467-4.2-0.4C1.533-1.117,0.6-0.933,0-0.6z"/>
	</g>
</symbol>
<symbol  id="flash0.ai_x5F_0_x2F_Layer_12_x2F__x3C_Path_x3E__x5F_47" viewBox="-0.014 -10.9 15.57 10.9">
	<g id="Layer_1_4_">

			<radialGradient id="SVGID_4_" cx="-923.6348" cy="-1051.6382" r="10.0221" gradientTransform="matrix(0.9926 -0.1211 -0.1196 -0.9805 796.4312 -1145.5923)" gradientUnits="userSpaceOnUse">
			<stop  offset="0" style="stop-color:#FFFFFF"/>
			<stop  offset="1" style="stop-color:#FFFFFF;stop-opacity:0"/>
		</radialGradient>
		<path style="fill-rule:evenodd;clip-rule:evenodd;fill:url(#SVGID_4_);" d="M15.55-4.05c0.034-0.4-0.083-0.817-0.35-1.25L15-4.4
			c-0.033,0.2-0.1,0.367-0.2,0.5l-0.15,0.2l0.2-1.05c0.033-0.5-0.083-1.183-0.35-2.05c0.067,0.367,0.083,0.783,0.05,1.25
			c0,0.3-0.1,0.667-0.3,1.1L13.9-3.9l0.05-1.5l-0.3-1.2l-0.3,1.7c-0.033,0.566-0.283,1.033-0.75,1.4l-0.1-1.9
			c-0.033-0.7-0.167-1.333-0.4-1.9c-0.1,0.433-0.167,0.9-0.2,1.4c-0.033,0.3-0.167,0.65-0.4,1.05l-0.3,0.5l0.05-1.95
			c-0.033-0.6-0.15-1.483-0.35-2.65l-0.2,2.7c-0.034,0.467-0.133,0.867-0.3,1.2l-0.2,0.4L9.9-6.5L9.85-5.65
			c0,0.267-0.083,0.583-0.25,0.95L9.35-4.25L8.25-7.9c0,0.667-0.05,1.35-0.15,2.05l-0.45,1.8L6.95-6.5c0,0.167-0.067,0.4-0.2,0.7
			l-0.5,1.7l-0.2-0.75C5.983-5.317,5.967-5.633,6-5.8L5.7-5.3C5.6-5.1,5.517-4.817,5.45-4.45L5.4-3.95L5.3-5.3l0.25-1.35L5.1-5.85
			c-0.167,0.3-0.317,0.767-0.45,1.4l-0.2,0.9C4.317-3.783,4.167-4.15,4-4.65c-0.167-0.533-0.2-1.133-0.1-1.8
			C3.8-6.25,3.7-5.9,3.6-5.4L3.55-3.35C3.383-3.55,3.083-4.4,2.65-5.9c-0.4-1.5-0.233-3.167,0.5-5c-0.2,0.167-0.483,1.117-0.85,2.85
			C1.967-6.317,1.933-4.733,2.2-3.3C2-3.7,1.833-4.167,1.7-4.7c-0.133-0.533-0.133-1.15,0-1.85c-0.133,0.267-0.233,0.733-0.3,1.4
			c-0.066,0.667,0,1.433,0.2,2.3C1.2-3.883,0.95-5.033,0.85-6.3C0.783-7.533,1.033-8.6,1.6-9.5C1.067-9.067,0.717-8.017,0.55-6.35
			C0.383-4.683,0.467-3.467,0.8-2.7L0.5-3.15C0.3-3.483,0.15-4,0.05-4.7c-0.1,0.3-0.083,0.917,0.05,1.85c0.167,0.9,0.6,1.6,1.3,2.1
			C1.3-0.95,1.167-1.133,1-1.3C0.833-1.467,0.717-1.717,0.65-2.05l0.45,0.6C1.233-1.283,1.383-1.167,1.55-1.1l-0.3-0.6
			c-0.133-0.233-0.133-0.45,0-0.65l0.55,1C2.033-1.017,2.3-0.8,2.6-0.7L2.1-1.65c-0.133-0.4-0.184-0.667-0.15-0.8l0.6,1
			C2.817-1.017,3.067-0.733,3.3-0.6L3.05-1.45c-0.1-0.4-0.083-0.733,0.05-1C3.267-2.083,3.517-1.667,3.85-1.2
			c0.367,0.467,0.733,0.817,1.1,1.05L4.35-1.3C4.117-1.7,4.017-2,4.05-2.2L4.5-1.4C4.733-1.033,5-0.733,5.3-0.5L5.15-1.3
			C5.05-1.7,5.033-2.067,5.1-2.4l0.4,0.8c0.167,0.4,0.517,0.917,1.05,1.55c-0.066-0.1-0.167-0.517-0.3-1.25
			C6.083-2,6.017-2.517,6.05-2.85L6.7-1.6C7-1.167,7.317-0.883,7.65-0.75L7.3-1.25C7.2-1.417,7.167-1.733,7.2-2.2
			c0-0.233,0.017-0.45,0.05-0.65l0.5,1.05C8.05-1.2,8.5-0.6,9.1,0L8.65-1.2c-0.133-0.433-0.133-0.9,0-1.4L8.9-2.3l0.65,0.65
			c-0.066-0.333-0.1-0.684-0.1-1.05c-0.034-0.333,0.033-0.517,0.2-0.55c0.3,0.633,0.483,1.1,0.55,1.4
			c0.033,0.333,0.216,0.717,0.55,1.15c-0.1-0.4-0.133-0.85-0.1-1.35s0.184-0.9,0.45-1.2c0.1,0.233,0.1,0.617,0,1.15L10.95-1
			l0.65-0.95l0.4-1c0.167,0.2,0.2,0.417,0.1,0.65c-0.1,0.4-0.25,0.75-0.45,1.05l0.75-0.7c0.333-0.3,0.617-0.6,0.85-0.9
			c-0.1,0.467-0.317,0.934-0.65,1.4l-0.75,1.1l0.55-0.3c0.434-0.267,0.783-0.533,1.05-0.8c0.433-0.4,0.783-0.966,1.05-1.7
			c0.067,0.367,0.033,0.8-0.1,1.3c-0.1,0.367-0.25,0.684-0.45,0.95l1-1.1C15.283-2.467,15.483-3.15,15.55-4.05z"/>
	</g>
</symbol>
<symbol  id="flash0.ai_x5F_0_x2F_Layer_12_x2F__x3C_Path_x3E__x5F_48" viewBox="0 -19.624 16.848 19.624">
	<g id="Layer_1_3_">
		<path style="fill-rule:evenodd;clip-rule:evenodd;" d="M8.375-17.75c0.122,0.138,0.263,0.289,0.425,0.45
			c-0.047,0.029-0.098,0.063-0.15,0.1c-0.029-0.092-0.063-0.175-0.1-0.25C8.486-17.578,8.427-17.678,8.375-17.75z M8.175-16.9
			c-0.169,0.107-0.336,0.216-0.5,0.325L7.5-17.8L8-17.15C8.054-17.078,8.112-16.995,8.175-16.9z M5.5-16.7
			c0.033-0.6,0.133-0.983,0.3-1.15l0.1,0.9c0.033,0.267,0.083,0.5,0.15,0.7L6.2-16l0.05-1.2c0-0.367,0.083-0.7,0.25-1
			c0.1,0.467,0.283,1.034,0.55,1.7c0.036,0.086,0.078,0.169,0.125,0.25c-0.588,0.393-1.155,0.792-1.7,1.2L5.5-16.7z M13.5-0.9
			c2.5-1.667,3.6-4.25,3.3-7.75c-0.233-2.934-1.216-5.533-2.95-7.8c-1.267-1.6-2.267-2.4-3-2.4c-0.7,0.267-1.317,0.283-1.85,0.05
			c-1.067-0.467-1.917-0.733-2.55-0.8c-0.9-0.1-1.767,0.117-2.6,0.65c-0.333,0.233-0.9,0.284-1.7,0.15c-0.7-0.1-1.367,0.117-2,0.65
			L0-16.75l0.3-0.95c0.133-0.4,0.367-0.6,0.7-0.6l-0.35,1l0.05,1.35l0.2-0.7c0.067-0.367,0.184-0.533,0.35-0.5v0.35l0.3,1.35
			l0.25-1.7c0.133-0.533,0.333-0.733,0.6-0.6l-0.05,0.7L2.5-16.3l0.3-1.3c0.133-0.4,0.267-0.45,0.4-0.15l-0.05,1.6
			c0,0.4,0.05,0.783,0.15,1.15l0.15,0.45l0.05-2.2c0-0.633,0.25-1.033,0.75-1.2c-0.1,0.4-0.15,0.784-0.15,1.15l0.05,0.85L4.4-17.2
			c0.067-0.3,0.233-0.533,0.5-0.7v1.55c-0.033,0.3,0.05,0.717,0.25,1.25l0.1,0.2c-0.137,0.102-0.271,0.202-0.4,0.3
			c-2.467,1.934-2.684,3.633-0.65,5.1c2.433,1.767,5,2.233,7.7,1.4c1.333-0.4,2.434-0.983,3.3-1.75c0.6,2.233,0.7,4.067,0.3,5.5
			c-0.133,0.667-0.45,1.367-0.95,2.1c-0.733,1.067-1.7,1.817-2.9,2.25C12.083-0.133,12.7-0.433,13.5-0.9z"/>
	</g>
</symbol>
<symbol  id="flash0.ai_x5F_0_x2F_Layer_12_x2F__x3C_Path_x3E__x5F_49" viewBox="0.017 -0.35 2.399 0.356">
	<g id="Layer_1_2_">
		<path style="fill-rule:evenodd;clip-rule:evenodd;fill:#FFFFFF;" d="M2.05-0.05C2.583-0.217,2.533-0.267,1.9-0.2
			C1.567-0.133,1.033-0.183,0.3-0.35H0.1c-0.167,0.033-0.083,0.1,0.25,0.2C1.117,0.017,1.683,0.05,2.05-0.05z"/>
	</g>
</symbol>
<symbol  id="flash0.ai_x5F_0_x2F_Layer_12_x2F__x3C_Path_x3E__x5F_9" viewBox="0 -1.268 7.25 1.238">
	<g id="Layer_1_17_">
		<path style="fill-rule:evenodd;clip-rule:evenodd;" d="M7.25-0.5l-0.9-0.4c-0.767-0.3-1.867-0.417-3.3-0.35
			C1.683-1.217,0.667-1,0-0.6c0,0.167,0.067,0.317,0.2,0.45C0.4,0.05,0.75,0,1.25-0.3c0.2-0.133,0.617-0.2,1.25-0.2
			c0.333,0,0.817,0.017,1.45,0.05c0.533,0,1.033-0.083,1.5-0.25L7.25-0.5z"/>
	</g>
</symbol>
<g>

		<radialGradient id="SVGID_5_" cx="30.5156" cy="-11.79" r="15.2118" gradientTransform="matrix(0.6175 0.5086 0.5077 -0.6164 11.9828 -0.998)" gradientUnits="userSpaceOnUse">
		<stop  offset="0" style="stop-color:#C73431"/>
		<stop  offset="1" style="stop-color:#6E1A00"/>
	</radialGradient>
	<path style="fill-rule:evenodd;clip-rule:evenodd;fill:url(#SVGID_5_);" d="M33.64,17.91c2,1.333,2.88,3.4,2.64,6.2
		c-0.187,2.347-0.973,4.427-2.359,6.24c-1.014,1.279-1.813,1.92-2.4,1.92c-0.56-0.213-1.054-0.227-1.48-0.04
		c-0.853,0.373-1.532,0.587-2.039,0.641c-0.721,0.079-1.414-0.094-2.08-0.521c-0.773-0.026-1.373-0.066-1.8-0.12
		c-0.827-0.054-1.8-0.933-2.921-2.64c-1.466-2.294-2.079-4.641-1.839-7.04c0.213-2.187,1.013-3.693,2.4-4.52
		c0.933-0.534,1.96-0.827,3.08-0.88c0.64-0.027,1.48,0,2.52,0.08c1.2-0.027,2.427-0.094,3.68-0.2
		C31.893,17.03,32.76,17.323,33.64,17.91z"/>

		<use xlink:href="#flash0.ai_x5F_0_x2F_Layer_12_x2F__x3C_Path_x3E__x5F_49"  width="2.399" height="0.356" x="0.017" y="-0.35" transform="matrix(0.8 0 0 -0.8 28.9004 17.2998)" style="overflow:visible;opacity:0.6094;enable-background:new    ;"/>

		<use xlink:href="#flash0.ai_x5F_0_x2F_Layer_12_x2F__x3C_Path_x3E__x5F_48"  width="16.848" height="19.624" y="-19.624" transform="matrix(0.8 0 0 -0.8 22.8496 17.2002)" style="overflow:visible;opacity:0.1719;enable-background:new    ;"/>

		<use xlink:href="#flash0.ai_x5F_0_x2F_Layer_12_x2F__x3C_Path_x3E__x5F_47"  width="15.57" height="10.9" x="-0.014" y="-10.9" transform="matrix(0.8 0 0 -0.8 19.8999 18.7998)" style="overflow:visible;opacity:0.3594;enable-background:new    ;"/>

		<use xlink:href="#flash0.ai_x5F_0_x2F_Layer_12_x2F__x3C_Path_x3E__x5F_46"  width="7.85" height="1.167" y="-1.167" transform="matrix(0.8 0 0 -0.8 25.2002 17.2998)" style="overflow:visible;opacity:0.3086;enable-background:new    ;"/>

		<linearGradient id="SVGID_6_" gradientUnits="userSpaceOnUse" x1="39.1602" y1="3.0479" x2="37.2846" y2="3.4704" gradientTransform="matrix(0.8 0 0 0.8 6.103516e-005 13.5497)">
		<stop  offset="0" style="stop-color:#69A815"/>
		<stop  offset="1" style="stop-color:#508010"/>
	</linearGradient>
	<path style="fill-rule:evenodd;clip-rule:evenodd;fill:url(#SVGID_6_);" d="M32.199,14.39c-0.053,0.48-0.213,0.987-0.479,1.521
		c-0.56,1.066-1.399,1.72-2.521,1.959l-1.56,0.24c-0.106,0.053-0.133-0.067-0.08-0.36c0.133-0.826,0.987-1.413,2.561-1.76
		C31.079,15.803,31.773,15.27,32.199,14.39z"/>

		<linearGradient id="SVGID_7_" gradientUnits="userSpaceOnUse" x1="38.1807" y1="4.4004" x2="36.4361" y2="2.1961" gradientTransform="matrix(0.8 0 0 0.8 6.103516e-005 13.5497)">
		<stop  offset="0" style="stop-color:#69A815"/>
		<stop  offset="1" style="stop-color:#508010"/>
	</linearGradient>
	<path style="fill-rule:evenodd;clip-rule:evenodd;fill:url(#SVGID_7_);" d="M30.12,15.99c0.959-0.187,1.653-0.72,2.079-1.6v0.04
		c-0.399,0.934-1.093,1.613-2.079,2.04c-0.934,0.4-1.521,0.667-1.761,0.8c-0.399,0.24-0.667,0.507-0.8,0.8
		c-0.026-0.027-0.026-0.133,0-0.32C27.692,16.923,28.547,16.336,30.12,15.99z"/>
	<path style="fill-rule:evenodd;clip-rule:evenodd;fill:#FFFFFF;" d="M25.96,21.23c0.239,0.187,0.133,0.307-0.32,0.359
		c-0.374,0.027-0.773,0.014-1.2-0.04c-0.826-0.08-1.4-0.16-1.72-0.24c-0.507-0.16-0.48-0.334,0.08-0.521
		c0.507-0.16,1.16-0.106,1.96,0.16c0.213,0.054,0.467,0.106,0.76,0.16C25.707,21.11,25.853,21.15,25.96,21.23z"/>
	<path style="fill-rule:evenodd;clip-rule:evenodd;fill:#FFFFFF;" d="M21.76,20.79c0.267,0.027,0.36,0.093,0.279,0.2
		c-0.16,0.133-0.266,0.213-0.319,0.24c-0.054,0.053-0.134,0.066-0.24,0.04c-0.133-0.026-0.227-0.093-0.28-0.2
		C21.12,20.883,21.307,20.79,21.76,20.79z"/>
	<path style="fill-rule:evenodd;clip-rule:evenodd;fill:#7D6630;" d="M27.6,15.35c-0.026,0.32-0.026,0.747,0,1.28
		c0.053,0.533,0.12,0.88,0.2,1.04l0.2,0.44h-0.24l-0.16-0.12c-0.427-1.2-0.627-2.12-0.6-2.76c0.026-0.64,0.093-1.134,0.199-1.48
		v-0.08l0.521,0.08c0.293,0,0.467-0.027,0.52-0.08C27.84,14.363,27.626,14.923,27.6,15.35z"/>
	<path style="fill-rule:evenodd;clip-rule:evenodd;fill:#614F25;" d="M28.239,13.67c-0.399,0.693-0.613,1.253-0.64,1.68
		c-0.026,0.32-0.026,0.747,0,1.28c0.053,0.533,0.12,0.88,0.2,1.04l0.2,0.44h-0.24l-0.16-0.12l-0.36-1.16l0.32,0.8
		c-0.213-0.907-0.32-1.52-0.32-1.84c0-0.293,0.04-0.56,0.12-0.8v0.64c0,0.347,0.04,0.76,0.12,1.24s0.213,0.84,0.399,1.08
		c-0.159-0.454-0.253-0.787-0.279-1c-0.134-0.987-0.146-1.72-0.04-2.2l0.12-1h0.04C28.013,13.75,28.187,13.723,28.239,13.67z"/>
	<path style="fill-rule:evenodd;clip-rule:evenodd;fill:#C9A44D;" d="M27.52,14.03c0.054,0.027-0.013,0.187-0.199,0.48
		c0,0.32-0.027,0.627-0.081,0.92c0,0.053-0.013,0.28-0.04,0.68c0,0.187-0.013,0.173-0.039-0.04c-0.081-0.56-0.054-1.16,0.079-1.8
		c0.054-0.187,0.094-0.293,0.12-0.32C27.387,13.923,27.439,13.95,27.52,14.03z"/>
	<path style="fill-rule:evenodd;clip-rule:evenodd;fill:#C9A44D;" d="M27.96,13.83c-0.187,0.026-0.334,0.026-0.44,0l-0.32-0.16
		l0.521-0.12c0.56-0.054,0.733-0.013,0.52,0.12C28.16,13.776,28.066,13.83,27.96,13.83z"/>

		<radialGradient id="SVGID_8_" cx="16.5215" cy="9.1294" r="15.4159" gradientTransform="matrix(0.6175 0.5086 0.5086 -0.6175 -9.2853 24.8254)" gradientUnits="userSpaceOnUse">
		<stop  offset="0" style="stop-color:#D93936"/>
		<stop  offset="1" style="stop-color:#781C00"/>
	</radialGradient>
	<path style="fill-rule:evenodd;clip-rule:evenodd;fill:url(#SVGID_8_);" d="M8.08,22.91c1.227,0,2.48-0.054,3.76-0.16
		c0.827,0,1.693,0.293,2.6,0.88c2.027,1.359,2.92,3.466,2.681,6.319c-0.187,2.4-0.987,4.521-2.4,6.36c-1.013,1.333-1.827,2-2.44,2
		c-0.56-0.24-1.053-0.268-1.48-0.08c-0.854,0.399-1.533,0.627-2.04,0.68c-0.721,0.054-1.414-0.133-2.08-0.56
		c-0.267-0.187-0.587-0.253-0.96-0.2c-0.533,0.08-0.827,0.12-0.88,0.12c-0.827-0.054-1.8-0.96-2.92-2.72
		c-1.493-2.348-2.12-4.733-1.88-7.16c0.24-2.24,1.053-3.773,2.44-4.601c0.933-0.56,1.974-0.866,3.12-0.92
		C6.213,22.843,7.04,22.856,8.08,22.91z"/>

		<use xlink:href="#flash0.ai_x5F_0_x2F_Layer_12_x2F__x3C_Path_x3E__x5F_36"  width="2.641" height="0.356" x="-0.012" y="-0.35" transform="matrix(0.8 0 0 -0.8 9.6499 23)" style="overflow:visible;opacity:0.6094;enable-background:new    ;"/>

		<use xlink:href="#flash0.ai_x5F_0_x2F_Layer_12_x2F__x3C_Path_x3E__x5F_35"  width="16.998" height="20.011" y="-20.011" transform="matrix(0.8 0 0 -0.8 3.5498 22.9004)" style="overflow:visible;opacity:0.1719;enable-background:new    ;"/>

		<use xlink:href="#flash0.ai_x5F_0_x2F_Layer_12_x2F__x3C_Path_x3E__x5F_34"  width="15.644" height="11.1" x="0.011" y="-11.1" transform="matrix(0.8 0 0 -0.8 0.6001 24.5498)" style="overflow:visible;opacity:0.3594;enable-background:new    ;"/>

		<use xlink:href="#flash0.ai_x5F_0_x2F_Layer_12_x2F__x3C_Path_x3E__x5F_33"  width="7.9" height="1.167" y="-1.167" transform="matrix(0.8 0 0 -0.8 5.8999 23)" style="overflow:visible;opacity:0.3086;enable-background:new    ;"/>

		<linearGradient id="SVGID_9_" gradientUnits="userSpaceOnUse" x1="15.1748" y1="10.1475" x2="13.2742" y2="10.5697" gradientTransform="matrix(0.8 0 0 0.8 6.103516e-005 13.5497)">
		<stop  offset="0" style="stop-color:#69A815"/>
		<stop  offset="1" style="stop-color:#508010"/>
	</linearGradient>
	<path style="fill-rule:evenodd;clip-rule:evenodd;fill:url(#SVGID_9_);" d="M13,20.03c-0.054,0.507-0.213,1.026-0.48,1.56
		c-0.56,1.093-1.4,1.76-2.52,2l-1.6,0.24c-0.106,0.053-0.133-0.067-0.08-0.36c0.134-0.854,1-1.44,2.6-1.76
		C11.88,21.496,12.573,20.937,13,20.03z"/>

		<linearGradient id="SVGID_10_" gradientUnits="userSpaceOnUse" x1="14.1768" y1="11.5244" x2="12.4088" y2="9.2938" gradientTransform="matrix(0.8 0 0 0.8 6.103516e-005 13.5497)">
		<stop  offset="0" style="stop-color:#69A815"/>
		<stop  offset="1" style="stop-color:#508010"/>
	</linearGradient>
	<path style="fill-rule:evenodd;clip-rule:evenodd;fill:url(#SVGID_10_);" d="M10.92,21.71c0.96-0.214,1.653-0.773,2.08-1.68v0.04
		c-0.48,0.986-1.174,1.68-2.08,2.08c-0.907,0.374-1.507,0.653-1.8,0.84c-0.4,0.24-0.666,0.507-0.8,0.8
		c-0.026-0.026-0.026-0.133,0-0.319C8.454,22.616,9.32,22.029,10.92,21.71z"/>
	<path style="fill-rule:evenodd;clip-rule:evenodd;fill:#FFFFFF;" d="M6.72,27.029c0.24,0.188,0.134,0.307-0.32,0.36
		c-0.4,0.026-0.8,0.014-1.2-0.04c-0.854-0.08-1.439-0.16-1.76-0.24c-0.48-0.16-0.453-0.347,0.08-0.56
		c0.426-0.134,1.08-0.08,1.96,0.16c0.24,0.079,0.507,0.133,0.8,0.159C6.467,26.896,6.613,26.949,6.72,27.029z"/>
	<path style="fill-rule:evenodd;clip-rule:evenodd;fill:#FFFFFF;" d="M2.48,26.59c0.267,0.026,0.36,0.08,0.28,0.16
		c-0.054,0.053-0.16,0.133-0.32,0.239c-0.053,0.08-0.133,0.106-0.24,0.08c-0.133-0.026-0.227-0.093-0.28-0.2
		C1.76,26.63,1.946,26.536,2.48,26.59z"/>
	<path style="fill-rule:evenodd;clip-rule:evenodd;fill:#7D6630;" d="M8.56,23.35l0.2,0.48H8.52l-0.16-0.12
		c-0.453-1.228-0.653-2.16-0.6-2.8c0.133-0.96,0.2-1.467,0.2-1.52v-0.08l0.48,0.08c0.32,0,0.506-0.027,0.56-0.08l-0.32,0.6
		c-0.213,0.453-0.334,0.827-0.36,1.12c-0.026,0.347-0.013,0.773,0.04,1.28C8.413,22.869,8.48,23.217,8.56,23.35z"/>
	<path style="fill-rule:evenodd;clip-rule:evenodd;fill:#614F25;" d="M9,19.31l-0.32,0.6c-0.213,0.453-0.334,0.827-0.36,1.12
		c-0.026,0.347-0.013,0.773,0.04,1.28c0.053,0.56,0.12,0.907,0.2,1.04l0.2,0.48H8.52l-0.16-0.12L8,22.51l0.08,0.24
		c0.053,0.213,0.133,0.413,0.24,0.6C8.106,22.416,8,21.79,8,21.47l0.12-0.8v0.641c0,0.346,0.041,0.773,0.12,1.28
		c0.08,0.479,0.214,0.84,0.4,1.08c-0.186-0.453-0.28-0.787-0.28-1c-0.106-1.067-0.12-1.827-0.04-2.28l0.12-1
		C8.76,19.39,8.946,19.363,9,19.31z"/>
	<path style="fill-rule:evenodd;clip-rule:evenodd;fill:#C9A44D;" d="M8.28,19.669c0.053,0.027-0.013,0.2-0.2,0.52L8,21.11
		c0,0.053-0.013,0.28-0.04,0.68c0,0.187-0.014,0.173-0.04-0.04c-0.08-0.586-0.053-1.2,0.08-1.84
		C8.053,19.617,8.146,19.537,8.28,19.669z"/>
	<path style="fill-rule:evenodd;clip-rule:evenodd;fill:#C9A44D;" d="M8.72,19.47H8.24l-0.28-0.16l0.12-0.08
		c0.106-0.054,0.24-0.08,0.4-0.08c0.507,0,0.68,0.053,0.52,0.16C8.893,19.417,8.8,19.47,8.72,19.47z"/>

		<radialGradient id="SVGID_11_" cx="41.8604" cy="-6.4575" r="15.8383" gradientTransform="matrix(0.6591 0.4533 0.4533 -0.6591 5.8548 5.0373)" gradientUnits="userSpaceOnUse">
		<stop  offset="0" style="stop-color:#E63C39"/>
		<stop  offset="1" style="stop-color:#821E00"/>
	</radialGradient>
	<path style="fill-rule:evenodd;clip-rule:evenodd;fill:url(#SVGID_11_);" d="M32.72,23.229c1.227-0.106,2.493-0.267,3.8-0.479
		c0.854-0.08,1.76,0.146,2.72,0.68c2.187,1.2,3.294,3.28,3.32,6.24c0,2.479-0.64,4.72-1.92,6.72
		c-0.906,1.439-1.667,2.187-2.28,2.239c-0.587-0.187-1.094-0.173-1.521,0.041c-0.853,0.453-1.532,0.732-2.039,0.84
		c-0.721,0.133-1.44,0.013-2.16-0.36c-0.827,0.053-1.467,0.08-1.92,0.08c-0.827,0.027-1.894-0.813-3.2-2.52
		c-1.733-2.268-2.586-4.653-2.56-7.16c0.026-2.294,0.706-3.934,2.04-4.92c0.934-0.667,1.973-1.08,3.12-1.24
		C30.786,23.31,31.652,23.256,32.72,23.229z"/>

		<use xlink:href="#flash0.ai_x5F_0_x2F_Layer_12_x2F__x3C_Path_x3E__x5F_23"  width="7" height="16.457" y="-16.457" transform="matrix(0.8 0 0 -0.8 26.4004 26.0498)" style="overflow:visible;opacity:0.2383;enable-background:new    ;"/>

		<use xlink:href="#flash0.ai_x5F_0_x2F_Layer_12_x2F__x3C_Path_x3E__x5F_22"  width="16.6" height="20.716" y="-20.966" transform="matrix(0.8 0 0 -0.8 29.2998 22.7998)" style="overflow:visible;opacity:0.1719;enable-background:new    ;"/>

		<use xlink:href="#flash0.ai_x5F_0_x2F_Layer_12_x2F__x3C_Path_x3E__x5F_21"  width="16.074" height="11.9" x="-0.029" y="-11.9" transform="matrix(0.8 0 0 -0.8 25.5 24.9004)" style="overflow:visible;opacity:0.3594;enable-background:new    ;"/>

		<use xlink:href="#flash0.ai_x5F_0_x2F_Layer_12_x2F__x3C_Path_x3E__x5F_20"  width="6.85" height="1.118" y="-1.118" transform="matrix(0.8 0 0 -0.8 30.2998 23.4004)" style="overflow:visible;opacity:0.3086;enable-background:new    ;"/>
	<path style="fill-rule:evenodd;clip-rule:evenodd;fill:#FFFFFF;" d="M31.64,27.59c0.267,0.16,0.173,0.279-0.28,0.359
		c-0.399,0.08-0.813,0.107-1.239,0.08c-0.881,0-1.494-0.026-1.841-0.08c-0.24-0.053-0.346-0.133-0.319-0.239
		c0-0.106,0.119-0.214,0.36-0.32c0.426-0.187,1.105-0.187,2.039,0c0.24,0.054,0.52,0.08,0.84,0.08
		C31.387,27.47,31.533,27.51,31.64,27.59z"/>
	<path style="fill-rule:evenodd;clip-rule:evenodd;fill:#FFFFFF;" d="M27.279,27.47c0.268,0,0.36,0.066,0.28,0.2
		c-0.134,0.133-0.227,0.227-0.28,0.279c-0.053,0.054-0.146,0.08-0.279,0.08c-0.107-0.026-0.2-0.093-0.28-0.199
		C26.586,27.643,26.773,27.523,27.279,27.47z"/>

		<use xlink:href="#flash0.ai_x5F_0_x2F_Layer_12_x2F__x3C_Path_x3E__x5F_17"  width="2.521" height="0.522" x="-0.006" y="-0.55" transform="matrix(0.8 0 0 -0.8 34.2998 23.0498)" style="overflow:visible;opacity:0.6094;enable-background:new    ;"/>
	<path style="fill-rule:evenodd;clip-rule:evenodd;fill:#7D6630;" d="M33.039,24.029c-0.56-1.199-0.853-2.133-0.88-2.799
		c-0.026-0.4-0.013-0.773,0.04-1.12l0.04-0.44v-0.08l0.521,0.041c0.319-0.054,0.506-0.107,0.56-0.16l-0.24,0.64
		c-0.187,0.479-0.279,0.866-0.279,1.16c0,0.347,0.053,0.8,0.16,1.36c0.079,0.56,0.173,0.906,0.279,1.04l0.24,0.439l-0.28,0.04
		L33.039,24.029z"/>
	<path style="fill-rule:evenodd;clip-rule:evenodd;fill:#614F25;" d="M33.319,19.47l-0.24,0.64c-0.187,0.479-0.279,0.866-0.279,1.16
		c0,0.347,0.053,0.8,0.16,1.36c0.079,0.56,0.173,0.906,0.279,1.04l0.24,0.439l-0.28,0.04l-0.16-0.12l-0.399-0.96l0.32,0.601
		c-0.294-0.934-0.453-1.561-0.48-1.88c-0.027-0.187-0.027-0.386,0-0.6l0.08-0.24l0.04,0.64c0,0.267,0.079,0.694,0.239,1.28
		c0.107,0.507,0.268,0.867,0.48,1.08c-0.213-0.426-0.347-0.76-0.399-1c-0.054-0.346-0.107-0.666-0.16-0.959
		c-0.081-0.56-0.107-1-0.081-1.32l0.041-1.04h0.04C33.079,19.576,33.266,19.523,33.319,19.47z"/>
	<path style="fill-rule:evenodd;clip-rule:evenodd;fill:#C9A44D;" d="M32.6,19.91c0.053,0.027,0,0.2-0.16,0.52v0.96
		c0,0.133,0.013,0.374,0.04,0.72c0.027,0.187,0.013,0.174-0.04-0.04c-0.16-0.533-0.2-1.16-0.12-1.88
		C32.373,19.87,32.466,19.776,32.6,19.91z"/>
	<path style="fill-rule:evenodd;clip-rule:evenodd;fill:#C9A44D;" d="M33.039,19.669L32.56,19.71l-0.32-0.121l0.12-0.08
		c0.106-0.053,0.24-0.093,0.4-0.12c0.479-0.053,0.666-0.027,0.56,0.08C33.266,19.55,33.173,19.617,33.039,19.669z"/>

		<radialGradient id="SVGID_12_" cx="29.8223" cy="2.312" r="16.5523" gradientTransform="matrix(0.6114 0.5159 0.5159 -0.6114 -2.385 16.3769)" gradientUnits="userSpaceOnUse">
		<stop  offset="0" style="stop-color:#E63C39"/>
		<stop  offset="1" style="stop-color:#821E00"/>
	</radialGradient>
	<path style="fill-rule:evenodd;clip-rule:evenodd;fill:url(#SVGID_12_);" d="M19.839,25.35c1.307,0,2.64-0.054,4-0.16
		c0.934,0.027,1.867,0.36,2.8,1c2.16,1.493,3.094,3.773,2.8,6.84c-0.24,2.56-1.133,4.827-2.68,6.8c-1.094,1.387-1.96,2.08-2.6,2.08
		c-0.613-0.239-1.147-0.267-1.601-0.08c-0.907,0.4-1.64,0.613-2.2,0.641c-0.773,0.08-1.521-0.107-2.24-0.561
		c-0.294-0.187-0.627-0.267-1-0.239c-0.614,0.079-0.947,0.119-1,0.119c-0.88-0.079-1.907-1.066-3.08-2.96
		c-1.573-2.56-2.213-5.133-1.92-7.72c0.267-2.399,1.16-4.04,2.68-4.92c1.013-0.586,2.133-0.906,3.36-0.96
		C17.826,25.229,18.72,25.27,19.839,25.35z"/>

		<use xlink:href="#flash0.ai_x5F_0_x2F_Layer_12_x2F__x3C_Path_x3E__x5F_11"  width="18.366" height="21.172" x="0.05" y="-21.373" transform="matrix(0.8 0 0 -0.8 14.75 25.4004)" style="overflow:visible;opacity:0.1719;enable-background:new    ;"/>

		<use xlink:href="#flash0.ai_x5F_0_x2F_Layer_12_x2F__x3C_Path_x3E__x5F_10"  width="16.844" height="11.9" x="-0.039" y="-11.9" transform="matrix(0.8 0 0 -0.8 11.75 27.0498)" style="overflow:visible;opacity:0.3594;enable-background:new    ;"/>

		<use xlink:href="#flash0.ai_x5F_0_x2F_Layer_12_x2F__x3C_Path_x3E__x5F_9"  width="7.25" height="1.238" y="-1.268" transform="matrix(0.8 0 0 -0.8 17.25 25.4004)" style="overflow:visible;opacity:0.3086;enable-background:new    ;"/>

		<linearGradient id="SVGID_13_" gradientUnits="userSpaceOnUse" x1="16.6538" y1="18.1309" x2="18.6608" y2="18.1309" gradientTransform="matrix(0.7773 -0.1893 0.1893 0.7773 2.515316e-004 13.5501)">
		<stop  offset="0" style="stop-color:#69A815"/>
		<stop  offset="1" style="stop-color:#508010"/>
	</linearGradient>
	<path style="fill-rule:evenodd;clip-rule:evenodd;fill:url(#SVGID_13_);" d="M15.6,21.87l0.52,0.84
		c0.454,0.586,0.987,0.96,1.601,1.12c1.653,0.399,2.546,1.08,2.68,2.039c0.053,0.374,0.013,0.521-0.121,0.44l-1.6-0.28
		c-1.172-0.293-2.04-1.066-2.6-2.319L15.6,21.87z"/>

		<linearGradient id="SVGID_14_" gradientUnits="userSpaceOnUse" x1="23.583" y1="-9.2539" x2="26.5504" y2="-9.2539" gradientTransform="matrix(0.5055 0.6201 -0.6201 0.5055 -2.253652e-004 13.5501)">
		<stop  offset="0" style="stop-color:#69A815"/>
		<stop  offset="1" style="stop-color:#508010"/>
	</linearGradient>
	<path style="fill-rule:evenodd;clip-rule:evenodd;fill:url(#SVGID_14_);" d="M17.72,23.83c1.653,0.399,2.546,1.08,2.68,2.039v0.4
		c-0.134-0.347-0.414-0.653-0.84-0.92c-0.187-0.133-0.8-0.467-1.84-1c-0.987-0.48-1.694-1.28-2.121-2.4v-0.08l0.52,0.84
		C16.573,23.296,17.107,23.67,17.72,23.83z"/>
	<path style="fill-rule:evenodd;clip-rule:evenodd;fill:#FFFFFF;" d="M18.32,29.75c0.24,0.187,0.106,0.307-0.4,0.359
		c-0.427,0.054-0.854,0.04-1.28-0.04l-1.88-0.28c-0.267-0.079-0.387-0.173-0.36-0.279c0.026-0.106,0.187-0.214,0.48-0.32
		c0.507-0.133,1.213-0.066,2.12,0.2c0.24,0.08,0.507,0.146,0.8,0.2C18.013,29.616,18.187,29.67,18.32,29.75z"/>
	<path style="fill-rule:evenodd;clip-rule:evenodd;fill:#FFFFFF;" d="M13.76,29.189c0.293,0.027,0.387,0.106,0.28,0.24
		c-0.053,0.053-0.16,0.133-0.32,0.24c-0.24,0.187-0.44,0.133-0.6-0.16C13.04,29.296,13.253,29.189,13.76,29.189z"/>

		<use xlink:href="#flash0.ai_x5F_0_x2F_Layer_12_x2F__x3C_Path_x3E__x5F_4"  width="2.576" height="0.406" x="0.005" y="-0.4" transform="matrix(0.8 0 0 -0.8 21.5 25.4502)" style="overflow:visible;opacity:0.6094;enable-background:new    ;"/>
	<path style="fill-rule:evenodd;clip-rule:evenodd;fill:#7D6630;" d="M20.12,23.31c-0.027,0.347-0.027,0.813,0,1.4
		c0.053,0.586,0.12,0.96,0.2,1.12l0.24,0.479l-0.281,0.04c-0.053,0-0.106-0.026-0.159-0.08l-0.041-0.08
		c-0.427-1.307-0.627-2.307-0.6-3c0.16-1.014,0.241-1.546,0.241-1.6v-0.12l0.08,0.08c0.107,0.026,0.266,0.04,0.479,0.04
		c0.32,0,0.521-0.04,0.6-0.12l-0.359,0.64C20.279,22.616,20.146,23.017,20.12,23.31z"/>
	<path style="fill-rule:evenodd;clip-rule:evenodd;fill:#614F25;" d="M20.879,21.47l-0.359,0.64c-0.241,0.507-0.374,0.907-0.4,1.2
		c-0.027,0.347-0.027,0.813,0,1.4c0.053,0.586,0.12,0.96,0.2,1.12l0.24,0.479l-0.281,0.04c-0.053,0-0.106-0.026-0.159-0.08
		l-0.041-0.08c-0.133-0.373-0.253-0.8-0.359-1.279l0.08,0.279l0.28,0.641c-0.24-1.014-0.359-1.693-0.359-2.041
		c0-0.213,0.04-0.426,0.119-0.64l0.081-0.239l-0.041,0.68c0,0.399,0.041,0.866,0.12,1.399c0.08,0.534,0.213,0.921,0.4,1.16
		c-0.187-0.479-0.28-0.84-0.28-1.08c-0.134-1.12-0.147-1.92-0.041-2.399c0.107-0.427,0.16-0.8,0.16-1.12l0.04,0.04
		C20.6,21.589,20.8,21.55,20.879,21.47z"/>
	<path style="fill-rule:evenodd;clip-rule:evenodd;fill:#C9A44D;" d="M20.08,21.87c0.054,0.026-0.027,0.2-0.24,0.52
		c0,0.347-0.026,0.68-0.08,1c0,0.054-0.013,0.307-0.04,0.76c0,0.214-0.014,0.2-0.041-0.04c-0.08-0.64-0.053-1.307,0.081-2
		c0.053-0.213,0.106-0.333,0.16-0.36C19.947,21.723,20,21.763,20.08,21.87z"/>
	<path style="fill-rule:evenodd;clip-rule:evenodd;fill:#C9A44D;" d="M20.52,21.669h-0.48l-0.319-0.2l0.119-0.08
		c0.134-0.053,0.294-0.08,0.48-0.08c0.48,0,0.667,0.053,0.56,0.16C20.773,21.576,20.653,21.643,20.52,21.669z"/>
</g>
</svg>
