<?xml version="1.0" encoding="iso-8859-1"?>
<!-- Generator: Adobe Illustrator 15.1.0, SVG Export Plug-In . SVG Version: 6.00 Build 0)  -->
<!DOCTYPE svg PUBLIC "-//W3C//DTD SVG 1.1//EN" "http://www.w3.org/Graphics/SVG/1.1/DTD/svg11.dtd">
<svg version="1.1" id="flash0.ai" xmlns="http://www.w3.org/2000/svg" xmlns:xlink="http://www.w3.org/1999/xlink" x="0px" y="0px"
	 width="37.7px" height="37.35px" viewBox="0 0 37.7 37.35" style="enable-background:new 0 0 37.7 37.35;" xml:space="preserve">
<symbol  id="flash0.ai_x5F_8_x2F_Layer_4_x2F__x3C_Compound_Path_x3E_" viewBox="0 -37.35 37.35 37.35">
	<g id="Layer_1_2_">

			<linearGradient id="SVGID_1_" gradientUnits="userSpaceOnUse" x1="-2879.0508" y1="-11526.9453" x2="-2840.1404" y2="-11526.9453" gradientTransform="matrix(0.471 -0.8822 0.8822 0.471 11534.2842 2886.8682)">
			<stop  offset="0" style="stop-color:#C9E8FF"/>
			<stop  offset="0.5765" style="stop-color:#6E9DC4"/>
			<stop  offset="1" style="stop-color:#306A9C"/>
		</linearGradient>
		<path style="fill-rule:evenodd;clip-rule:evenodd;fill:url(#SVGID_1_);" d="M37.35-18.65c0-5.167-1.817-9.567-5.45-13.2
			c-3.667-3.667-8.083-5.5-13.25-5.5c-5.133,0-9.533,1.833-13.2,5.5C1.817-28.217,0-23.817,0-18.65c0,5.133,1.817,9.533,5.45,13.2
			C9.117-1.817,13.517,0,18.65,0c5.167,0,9.583-1.817,13.25-5.45C35.533-9.083,37.35-13.483,37.35-18.65z M31.5-5.8
			c-3.533,3.533-7.817,5.3-12.85,5.3c-5,0-9.267-1.767-12.8-5.3C2.283-9.333,0.5-13.617,0.5-18.65c0-5,1.783-9.283,5.35-12.85
			c3.533-3.567,7.8-5.35,12.8-5.35c5.033,0,9.317,1.783,12.85,5.35c3.567,3.567,5.35,7.85,5.35,12.85
			C36.85-13.617,35.067-9.333,31.5-5.8z"/>
	</g>
</symbol>
<symbol  id="flash0.ai_x5F_8_x2F_Layer_4_x2F__x3C_Path_x3E_" viewBox="0.2 -17.932 28.956 17.932">
	<g id="Layer_1_3_">
		<path style="fill-rule:evenodd;clip-rule:evenodd;fill:#FFFFFF;" d="M29,0c0.333-1.9,0.133-4.017-0.6-6.35
			c-1.433-4.7-4.783-8.167-10.05-10.4c-3.967-1.7-8.217-1.567-12.75,0.4c-2.163,0.923-3.963,2.014-5.4,3.275
			c1.06-0.889,2.543-1.631,4.45-2.225c4.033-1.233,8.434-1,13.2,0.7c4.3,1.533,7.45,4.434,9.45,8.7C28.3-3.8,28.867-1.833,29,0z"/>
	</g>
</symbol>
<radialGradient id="SVGID_2_" cx="26.0566" cy="-0.106" r="15.3796" gradientTransform="matrix(0.7071 0.7071 0.7071 -0.7071 0.1499 -0.1502)" gradientUnits="userSpaceOnUse">
	<stop  offset="0" style="stop-color:#9ED7FF"/>
	<stop  offset="1" style="stop-color:#63D3FF"/>
</radialGradient>
<path style="fill-rule:evenodd;clip-rule:evenodd;fill:url(#SVGID_2_);" d="M37.45,18.65c0,5.067-1.8,9.417-5.4,13.05
	C28.45,35.3,24.1,37.1,19,37.1c-5.067,0-9.4-1.8-13-5.399c-3.6-3.634-5.4-7.983-5.4-13.05c0-5.1,1.8-9.433,5.4-13
	c3.6-3.6,7.933-5.4,13-5.4c5.1,0,9.45,1.8,13.05,5.4C35.65,9.217,37.45,13.55,37.45,18.65z"/>
<use xlink:href="#flash0.ai_x5F_8_x2F_Layer_4_x2F__x3C_Compound_Path_x3E_"  width="37.35" height="37.35" y="-37.35" transform="matrix(1 0 0 -1 0.3501 0)" style="overflow:visible;opacity:0.5;enable-background:new    ;"/>
<path style="fill-rule:evenodd;clip-rule:evenodd;fill:#FFFFFF;" d="M9.4,6.85c2.467,0.1,2.783,1.283,0.95,3.55
	c-1.934,2.434-3.267,3.25-4,2.45c-0.667-0.7-0.617-1.867,0.15-3.5C7.267,7.65,8.233,6.817,9.4,6.85z"/>
<path style="fill-rule:evenodd;clip-rule:evenodd;fill:#FFFFFF;" d="M5.4,14.65c0.633,0.133,0.833,0.617,0.6,1.45
	c-0.233,0.833-0.583,1.083-1.05,0.75c-0.4-0.267-0.534-0.717-0.4-1.35C4.717,14.867,5,14.583,5.4,14.65z"/>
<use xlink:href="#flash0.ai_x5F_8_x2F_Layer_4_x2F__x3C_Path_x3E_"  width="28.956" height="17.932" x="0.2" y="-17.932" transform="matrix(1 0 0 -1 5.9502 16.3501)" style="overflow:visible;opacity:0.3398;enable-background:new    ;"/>
</svg>
