<?xml version="1.0" encoding="iso-8859-1"?>
<!-- Generator: Adobe Illustrator 15.1.0, SVG Export Plug-In . SVG Version: 6.00 Build 0)  -->
<!DOCTYPE svg PUBLIC "-//W3C//DTD SVG 1.1//EN" "http://www.w3.org/Graphics/SVG/1.1/DTD/svg11.dtd">
<svg version="1.1" id="flash0.ai" xmlns="http://www.w3.org/2000/svg" xmlns:xlink="http://www.w3.org/1999/xlink" x="0px" y="0px"
	 width="43.95px" height="62.9px" viewBox="0 0 43.95 62.9" style="enable-background:new 0 0 43.95 62.9;" xml:space="preserve">
<symbol  id="flash0.ai_x5F_2_x2F_Layer_44_copy_x2F__x3C_Compound_Path_x3E__x5F_2" viewBox="0 -6.85 6.9 6.85">
	<g id="Layer_1_28_">
		<path style="fill-rule:evenodd;clip-rule:evenodd;fill:#FFFFFF;" d="M5.75-1.1c-0.633,0.633-1.4,0.95-2.3,0.95
			c-0.9,0-1.667-0.317-2.3-0.95c-0.667-0.633-1-1.417-1-2.35c0-0.9,0.333-1.667,1-2.3c0.633-0.633,1.4-0.95,2.3-0.95
			c0.9,0,1.667,0.317,2.3,0.95s0.95,1.4,0.95,2.3C6.7-2.517,6.383-1.733,5.75-1.1z M5.9-5.85c-0.7-0.667-1.517-1-2.45-1
			c-0.934,0-1.75,0.333-2.45,1c-0.667,0.667-1,1.467-1,2.4C0-2.517,0.333-1.7,1-1c0.7,0.667,1.517,1,2.45,1
			C4.417,0,5.233-0.333,5.9-1c0.667-0.7,1-1.517,1-2.45C6.9-4.383,6.567-5.183,5.9-5.85z"/>
	</g>
</symbol>
<symbol  id="flash0.ai_x5F_2_x2F_Layer_44_copy_x2F__x3C_Compound_Path_x3E__x5F_3">
	<g id="Layer_1_24_">
	</g>
</symbol>
<symbol  id="flash0.ai_x5F_2_x2F_Layer_44_copy_x2F__x3C_Compound_Path_x3E__x5F_4" viewBox="0 -5.7 5.75 5.7">
	<g id="Layer_1_20_">
		<path style="fill-rule:evenodd;clip-rule:evenodd;fill:#FFFFFF;" d="M2.85-0.1c-0.733,0-1.367-0.267-1.9-0.8
			c-0.534-0.533-0.8-1.184-0.8-1.95s0.267-1.4,0.8-1.9c0.533-0.533,1.167-0.8,1.9-0.8c0.767,0,1.417,0.267,1.95,0.8
			c0.534,0.533,0.8,1.167,0.8,1.9S5.333-1.467,4.8-0.9C4.267-0.367,3.617-0.1,2.85-0.1z M4.9-0.85c0.567-0.533,0.85-1.2,0.85-2
			c0-0.767-0.283-1.433-0.85-2C4.333-5.417,3.65-5.7,2.85-5.7c-0.767,0-1.434,0.284-2,0.85C0.283-4.283,0-3.617,0-2.85
			c0,0.8,0.283,1.467,0.85,2C1.417-0.283,2.083,0,2.85,0C3.65,0,4.333-0.283,4.9-0.85z"/>
	</g>
</symbol>
<symbol  id="flash0.ai_x5F_2_x2F_Layer_44_copy_x2F__x3C_Compound_Path_x3E__x5F_5" viewBox="0 -6.45 6.45 6.45">
	<g id="Layer_1_17_">
		<path style="fill-rule:evenodd;clip-rule:evenodd;fill:#FFFFFF;" d="M5.4-1.05c-0.6,0.6-1.333,0.9-2.2,0.9
			c-0.833,0-1.55-0.3-2.15-0.9c-0.6-0.6-0.9-1.317-0.9-2.15c0-0.867,0.3-1.6,0.9-2.2C1.65-6,2.367-6.3,3.2-6.3
			c0.867,0,1.6,0.3,2.2,0.9s0.9,1.333,0.9,2.2C6.3-2.367,6-1.65,5.4-1.05z M5.5-5.5C4.867-6.133,4.1-6.45,3.2-6.45
			c-0.867,0-1.617,0.317-2.25,0.95S0-4.1,0-3.2c0,0.867,0.317,1.617,0.95,2.25S2.333,0,3.2,0c0.9,0,1.667-0.317,2.3-0.95
			S6.45-2.333,6.45-3.2C6.45-4.1,6.133-4.867,5.5-5.5z"/>
	</g>
</symbol>
<symbol  id="flash0.ai_x5F_2_x2F_Layer_44_copy_x2F__x3C_Compound_Path_x3E__x5F_6" viewBox="0 -6.2 6.2 6.2">
	<g id="Layer_1_13_">
		<path style="fill-rule:evenodd;clip-rule:evenodd;fill:#FFFFFF;" d="M5.2-1C4.6-0.433,3.9-0.15,3.1-0.15
			C2.267-0.15,1.567-0.433,1-1S0.15-2.267,0.15-3.1c0-0.8,0.283-1.5,0.85-2.1c0.567-0.566,1.267-0.85,2.1-0.85
			c0.8,0,1.5,0.283,2.1,0.85c0.566,0.6,0.85,1.3,0.85,2.1C6.05-2.267,5.767-1.567,5.2-1z M5.3-5.3C4.7-5.9,3.967-6.2,3.1-6.2
			c-0.833,0-1.567,0.3-2.2,0.9C0.3-4.7,0-3.967,0-3.1c0,0.833,0.3,1.567,0.9,2.2C1.533-0.3,2.267,0,3.1,0c0.867,0,1.6-0.3,2.2-0.9
			c0.6-0.633,0.9-1.367,0.9-2.2C6.2-3.967,5.9-4.7,5.3-5.3z"/>
	</g>
</symbol>
<symbol  id="flash0.ai_x5F_2_x2F_Layer_44_copy_x2F__x3C_Path_x3E_">
	<g id="Layer_1_10_">
	</g>
</symbol>
<symbol  id="flash0.ai_x5F_2_x2F_Layer_44_copy_x2F__x3C_Path_x3E__x5F_1">
	<g id="Layer_1_9_">
	</g>
</symbol>
<symbol  id="flash0.ai_x5F_2_x2F_Layer_44_copy_x2F__x3C_Path_x3E__x5F_10" viewBox="0 -6.75 6.7 6.75">
	<g id="Layer_1_27_">

			<radialGradient id="SVGID_1_" cx="-3205.2764" cy="-10127.8379" r="4.5294" gradientTransform="matrix(0.5768 -0.8169 -0.8169 -0.5768 -6422.8164 -8461.8633)" gradientUnits="userSpaceOnUse">
			<stop  offset="0" style="stop-color:#EDF5FF"/>
			<stop  offset="0.6275" style="stop-color:#7D90A6"/>
			<stop  offset="1" style="stop-color:#3F5875"/>
		</radialGradient>
		<path style="fill-rule:evenodd;clip-rule:evenodd;fill:url(#SVGID_1_);" d="M6.7-3.4c0-0.934-0.333-1.717-1-2.35
			c-0.633-0.667-1.417-1-2.35-1c-0.934,0-1.717,0.333-2.35,1C0.333-5.117,0-4.333,0-3.4C0-2.467,0.333-1.667,1-1
			c0.633,0.667,1.417,1,2.35,1C4.283,0,5.067-0.333,5.7-1C6.367-1.667,6.7-2.467,6.7-3.4z"/>
	</g>
</symbol>
<symbol  id="flash0.ai_x5F_2_x2F_Layer_44_copy_x2F__x3C_Path_x3E__x5F_11" viewBox="0 -6.75 6.7 6.75">
	<g id="Layer_1_26_">
		<path style="fill-rule:evenodd;clip-rule:evenodd;fill:#FFFFFF;" d="M6.7-3.4c0-0.934-0.333-1.717-1-2.35
			c-0.633-0.667-1.417-1-2.35-1c-0.934,0-1.717,0.333-2.35,1C0.333-5.117,0-4.333,0-3.4C0-2.467,0.333-1.667,1-1
			c0.633,0.667,1.417,1,2.35,1C4.283,0,5.067-0.333,5.7-1C6.367-1.667,6.7-2.467,6.7-3.4z"/>
	</g>
</symbol>
<symbol  id="flash0.ai_x5F_2_x2F_Layer_44_copy_x2F__x3C_Path_x3E__x5F_12" viewBox="0 -1.862 2.977 1.862">
	<g id="Layer_1_25_">
		<path style="fill-rule:evenodd;clip-rule:evenodd;fill:#FFFFFF;" d="M0-1.35C0.433-1.717,1.033-1.767,1.8-1.5
			C2.5-1.233,2.883-0.733,2.95,0c0.133-0.767-0.233-1.333-1.1-1.7C1.217-2,0.6-1.883,0-1.35z"/>
	</g>
</symbol>
<symbol  id="flash0.ai_x5F_2_x2F_Layer_44_copy_x2F__x3C_Path_x3E__x5F_15" viewBox="0 -3.75 3.75 3.75">
	<g id="Layer_1_23_">

			<radialGradient id="SVGID_2_" cx="-3202.3262" cy="-10151.1807" r="2.5212" gradientTransform="matrix(0.5751 -0.8181 -0.8181 -0.5751 -6461.5947 -8458.9609)" gradientUnits="userSpaceOnUse">
			<stop  offset="0" style="stop-color:#EDF5FF"/>
			<stop  offset="0.0824" style="stop-color:#D9E5F3"/>
			<stop  offset="0.7216" style="stop-color:#3E6899"/>
			<stop  offset="1" style="stop-color:#003675"/>
		</radialGradient>
		<path style="fill-rule:evenodd;clip-rule:evenodd;fill:url(#SVGID_2_);" d="M3.75-1.9c0-0.5-0.183-0.934-0.55-1.3
			S2.4-3.75,1.9-3.75c-0.533,0-0.983,0.183-1.35,0.55S0-2.4,0-1.9c0,0.533,0.183,0.983,0.55,1.35S1.367,0,1.9,0
			c0.5,0,0.934-0.183,1.3-0.55S3.75-1.367,3.75-1.9z"/>
	</g>
</symbol>
<symbol  id="flash0.ai_x5F_2_x2F_Layer_44_copy_x2F__x3C_Path_x3E__x5F_16" viewBox="0 -3.75 3.75 3.75">
	<g id="Layer_1_22_">
		<path style="fill-rule:evenodd;clip-rule:evenodd;fill:#FFFFFF;" d="M3.75-1.9c0-0.5-0.183-0.934-0.55-1.3S2.4-3.75,1.9-3.75
			c-0.533,0-0.983,0.183-1.35,0.55S0-2.4,0-1.9c0,0.533,0.183,0.983,0.55,1.35S1.367,0,1.9,0c0.5,0,0.934-0.183,1.3-0.55
			S3.75-1.367,3.75-1.9z"/>
	</g>
</symbol>
<symbol  id="flash0.ai_x5F_2_x2F_Layer_44_copy_x2F__x3C_Path_x3E__x5F_17" viewBox="0.175 -2.751 4.258 2.751">
	<g id="Layer_1_21_">
		<path style="fill-rule:evenodd;clip-rule:evenodd;fill:#FFFFFF;" d="M0.175-2.1C0.791-2.563,1.632-2.597,2.7-2.2
			C3.733-1.833,4.3-1.1,4.4,0c0.067-0.3,0.033-0.617-0.1-0.95c-0.233-0.7-0.75-1.233-1.55-1.6C1.875-2.925,1.016-2.775,0.175-2.1z"
			/>
	</g>
</symbol>
<symbol  id="flash0.ai_x5F_2_x2F_Layer_44_copy_x2F__x3C_Path_x3E__x5F_2" viewBox="-0.007 -34.2 21.536 34.2">
	<g id="Layer_1_8_">

			<radialGradient id="SVGID_3_" cx="-37.5645" cy="-16262.2959" r="21.8256" gradientTransform="matrix(0.0074 -1 -0.7818 -0.0058 -12704.7168 -142.9619)" gradientUnits="userSpaceOnUse">
			<stop  offset="0" style="stop-color:#EBE0C3"/>
			<stop  offset="1" style="stop-color:#B09F6F"/>
		</radialGradient>
		<path style="fill-rule:evenodd;clip-rule:evenodd;fill:url(#SVGID_3_);" d="M20.45-0.8C20.883-0.567,21.2-0.3,21.4,0
			c0.2-3.3,0.167-6.583-0.1-9.85c-0.5-5.467-1.667-9.65-3.5-12.55c-1.733-2.7-2.883-5.317-3.45-7.85
			c-0.267-1.267-0.367-2.25-0.3-2.95l-0.4-0.5c-0.533-0.333-1.467-0.5-2.8-0.5h-0.1c-1.333,0-2.267,0.167-2.8,0.5l-0.4,0.5
			c0.067,0.7-0.033,1.684-0.3,2.95c-0.533,2.533-1.667,5.15-3.4,7.85c-3,4.667-4.25,11.983-3.75,21.95l0.05-0.1
			c0.033-0.567,0.3-1.133,0.8-1.7C1.45-2.783,2.033-3.133,2.7-3.3C7-4.367,10.917-4.5,14.45-3.7C17.017-3.1,19.017-2.133,20.45-0.8z
			"/>
	</g>
</symbol>
<symbol  id="flash0.ai_x5F_2_x2F_Layer_44_copy_x2F__x3C_Path_x3E__x5F_21" viewBox="0 -5.55 5.55 5.55">
	<g id="Layer_1_19_">
		<path style="fill-rule:evenodd;clip-rule:evenodd;fill:#FFFFFF;" d="M5.55-2.8c0-0.767-0.267-1.417-0.8-1.95
			c-0.567-0.533-1.233-0.8-2-0.8c-0.733,0-1.383,0.267-1.95,0.8C0.267-4.217,0-3.567,0-2.8c0,0.767,0.267,1.433,0.8,2
			C1.333-0.267,1.983,0,2.75,0s1.433-0.267,2-0.8C5.283-1.367,5.55-2.033,5.55-2.8z"/>
	</g>
</symbol>
<symbol  id="flash0.ai_x5F_2_x2F_Layer_44_copy_x2F__x3C_Path_x3E__x5F_22" viewBox="0.225 -3.063 4.758 3.063">
	<g id="Layer_1_18_">
		<path style="fill-rule:evenodd;clip-rule:evenodd;fill:#FFFFFF;" d="M0.225-2.375C0.938-2.878,1.88-2.92,3.05-2.5
			C3.783-2.233,4.317-1.733,4.65-1c0.167,0.367,0.267,0.7,0.3,1c0.066-0.333,0.033-0.7-0.1-1.1c-0.233-0.8-0.8-1.383-1.7-1.75
			c-0.7-0.3-1.433-0.283-2.2,0.05C0.683-2.679,0.441-2.537,0.225-2.375z"/>
	</g>
</symbol>
<symbol  id="flash0.ai_x5F_2_x2F_Layer_44_copy_x2F__x3C_Path_x3E__x5F_25" viewBox="0 -6.3 6.3 6.3">
	<g id="Layer_1_16_">

			<radialGradient id="SVGID_4_" cx="-3204.0508" cy="-10135.7305" r="4.2518" gradientTransform="matrix(0.5762 -0.8173 -0.8173 -0.5762 -6435.9258 -8460.7754)" gradientUnits="userSpaceOnUse">
			<stop  offset="0" style="stop-color:#99DAFF"/>
			<stop  offset="0.3608" style="stop-color:#77B6E7"/>
			<stop  offset="1" style="stop-color:#3D78BF"/>
		</radialGradient>
		<path style="fill-rule:evenodd;clip-rule:evenodd;fill:url(#SVGID_4_);" d="M6.3-3.15C6.3-4.017,6-4.767,5.4-5.4
			C4.767-6,4.017-6.3,3.15-6.3S1.55-6,0.95-5.4C0.317-4.767,0-4.017,0-3.15S0.317-1.533,0.95-0.9C1.55-0.3,2.283,0,3.15,0
			S4.767-0.3,5.4-0.9C6-1.533,6.3-2.283,6.3-3.15z"/>
	</g>
</symbol>
<symbol  id="flash0.ai_x5F_2_x2F_Layer_44_copy_x2F__x3C_Path_x3E__x5F_26" viewBox="0 -6.3 6.3 6.3">
	<g id="Layer_1_15_">
		<path style="fill-rule:evenodd;clip-rule:evenodd;fill:#FFFFFF;" d="M6.3-3.15C6.3-4.017,6-4.767,5.4-5.4
			C4.767-6,4.017-6.3,3.15-6.3S1.55-6,0.95-5.4C0.317-4.767,0-4.017,0-3.15S0.317-1.533,0.95-0.9C1.55-0.3,2.283,0,3.15,0
			S4.767-0.3,5.4-0.9C6-1.533,6.3-2.283,6.3-3.15z"/>
	</g>
</symbol>
<symbol  id="flash0.ai_x5F_2_x2F_Layer_44_copy_x2F__x3C_Path_x3E__x5F_27" viewBox="0 -2.928 4.783 2.928">
	<g id="Layer_1_14_">
		<path style="fill-rule:evenodd;clip-rule:evenodd;fill:#FFFFFF;" d="M0-2.1c0.7-0.633,1.683-0.733,2.95-0.3
			C4.05-2,4.65-1.2,4.75,0c0.067-0.3,0.033-0.65-0.1-1.05C4.417-1.817,3.867-2.383,3-2.75c-0.633-0.267-1.333-0.233-2.1,0.1
			C0.533-2.517,0.233-2.333,0-2.1z"/>
	</g>
</symbol>
<symbol  id="flash0.ai_x5F_2_x2F_Layer_44_copy_x2F__x3C_Path_x3E__x5F_30" viewBox="0 -6.05 6.05 6.05">
	<g id="Layer_1_12_">

			<radialGradient id="SVGID_5_" cx="-3206.4258" cy="-10122.6387" r="4.0716" gradientTransform="matrix(0.5772 -0.8166 -0.8166 -0.5772 -6414.1855 -8462.54)" gradientUnits="userSpaceOnUse">
			<stop  offset="0" style="stop-color:#EDF5FF"/>
			<stop  offset="0.6275" style="stop-color:#7D90A6"/>
			<stop  offset="1" style="stop-color:#3F5875"/>
		</radialGradient>
		<path style="fill-rule:evenodd;clip-rule:evenodd;fill:url(#SVGID_5_);" d="M6.05-3.05c0-0.833-0.3-1.534-0.9-2.1
			c-0.566-0.6-1.267-0.9-2.1-0.9c-0.833,0-1.55,0.3-2.15,0.9C0.3-4.583,0-3.883,0-3.05C0-2.217,0.3-1.5,0.9-0.9S2.217,0,3.05,0
			c0.833,0,1.534-0.3,2.1-0.9C5.75-1.5,6.05-2.217,6.05-3.05z"/>
	</g>
</symbol>
<symbol  id="flash0.ai_x5F_2_x2F_Layer_44_copy_x2F__x3C_Path_x3E__x5F_31" viewBox="0 -6.05 6.05 6.05">
	<g id="Layer_1_11_">
		<path style="fill-rule:evenodd;clip-rule:evenodd;fill:#FFFFFF;" d="M6.05-3.05c0-0.833-0.3-1.534-0.9-2.1
			c-0.566-0.6-1.267-0.9-2.1-0.9c-0.833,0-1.55,0.3-2.15,0.9C0.3-4.583,0-3.883,0-3.05C0-2.217,0.3-1.5,0.9-0.9S2.217,0,3.05,0
			c0.833,0,1.534-0.3,2.1-0.9C5.75-1.5,6.05-2.217,6.05-3.05z"/>
	</g>
</symbol>
<symbol  id="flash0.ai_x5F_2_x2F_Layer_44_copy_x2F__x3C_Path_x3E__x5F_4" viewBox="-0.178 -25.71 4.778 25.71">
	<g id="Layer_1_31_">

			<linearGradient id="SVGID_6_" gradientUnits="userSpaceOnUse" x1="20.5303" y1="-16328.3564" x2="39.4053" y2="-16328.3564" gradientTransform="matrix(5.298014e-005 -1 1 -0.001 16330.5684 2.8398)">
			<stop  offset="0" style="stop-color:#FFFFFF"/>
			<stop  offset="1" style="stop-color:#000000"/>
		</linearGradient>
		<path style="fill-rule:evenodd;clip-rule:evenodd;fill:url(#SVGID_6_);" d="M2.05-0.5L4.3,0l0.25-6.35
			c0.1-2.066,0.05-4.3-0.15-6.7c-0.233-3.1-0.683-5.617-1.35-7.55c-0.667-2-1.466-3.5-2.4-4.5c-1.033-1.066-1.1-0.733-0.2,1
			c1.233,2.333,1.85,5.083,1.85,8.25L2.05-0.5z"/>
	</g>
</symbol>
<symbol  id="flash0.ai_x5F_2_x2F_Layer_44_copy_x2F__x3C_Path_x3E__x5F_40" viewBox="0 -5.75 22.4 5.75">
	<g id="Layer_1_7_">
		<path style="fill-rule:evenodd;clip-rule:evenodd;fill:#FFFFFF;" d="M22.4-2.85c0-0.8-1.083-1.483-3.25-2.05
			c-2.2-0.567-4.85-0.85-7.95-0.85c-3.067,0-5.7,0.283-7.9,0.85C1.1-4.333,0-3.65,0-2.85c0,0.767,1.1,1.434,3.3,2
			C5.5-0.283,8.133,0,11.2,0c3.1,0,5.75-0.283,7.95-0.85C21.317-1.417,22.4-2.083,22.4-2.85z"/>
	</g>
</symbol>
<symbol  id="flash0.ai_x5F_2_x2F_Layer_44_copy_x2F__x3C_Path_x3E__x5F_41" viewBox="-0.013 -41.1 22.742 41.1">
	<g id="Layer_1_6_">
		<path style="fill-rule:evenodd;clip-rule:evenodd;fill:#FFFFFF;" d="M22.5,0c0.267-3.6,0.3-7.517,0.1-11.75
			c-0.367-8.5-1.65-14.35-3.85-17.55c-1.833-2.7-3.033-5.317-3.6-7.85c-0.3-1.267-0.417-2.25-0.35-2.95l-0.4-0.5
			c-0.566-0.333-1.566-0.5-3-0.5h-0.1c-1.4,0-2.383,0.167-2.95,0.5L7.9-40.1c0.067,0.7-0.033,1.684-0.3,2.95
			C7-34.617,5.783-32,3.95-29.3c-2.067,3-3.317,8.333-3.75,16C-0.067-9.267-0.083-4.967,0.15-0.4c0.2-0.767,1.367-1.4,3.5-1.9
			c2.167-0.534,4.717-0.8,7.65-0.8c3.1,0,5.75,0.283,7.95,0.85C21.417-1.683,22.5-1,22.5-0.2L22.45,0H22.5z"/>
	</g>
</symbol>
<symbol  id="flash0.ai_x5F_2_x2F_Layer_44_copy_x2F__x3C_Path_x3E__x5F_42" viewBox="0 -7.7 20.1 7.7">
	<g id="Layer_1_5_">
		<path style="fill-rule:evenodd;clip-rule:evenodd;fill:#E3E3E3;" d="M18.65-2.75C19.383-3.317,19.867-3.733,20.1-4
			c-0.233-0.333-0.667-0.733-1.3-1.2c-1.233-0.867-2.833-1.566-4.8-2.1c-0.6-0.167-1.317-0.284-2.15-0.35V-7.7H8.2v0.05
			C7.367-7.583,6.667-7.467,6.1-7.3C4.133-6.767,2.517-6.067,1.25-5.2C0.65-4.733,0.233-4.333,0-4c0.2,0.267,0.667,0.683,1.4,1.25
			C1.967-2.35,3.783-1.433,6.85,0C6.083-0.467,5.2-1.117,4.2-1.95C3.8-2.283,3.567-2.6,3.5-2.9C3.467-3.233,3.6-3.65,3.9-4.15
			c0.6-0.833,1.233-1.4,1.9-1.7c0.667-0.3,1.784-0.517,3.35-0.65C10.683-6.667,12.3-6.517,14-6.05c1.667,0.433,2.883,1.033,3.65,1.8
			c0.567,0.6,0.567,1.3,0,2.1L18.65-2.75z"/>
	</g>
</symbol>
<symbol  id="flash0.ai_x5F_2_x2F_Layer_44_copy_x2F__x3C_Path_x3E__x5F_43" viewBox="0 -8.5 20.1 8.5">
	<g id="Layer_1_4_">

			<linearGradient id="SVGID_7_" gradientUnits="userSpaceOnUse" x1="19.3975" y1="-16319.9707" x2="27.7225" y2="-16319.9707" gradientTransform="matrix(1.201201e-004 -1 1 -0.001 16330.0195 2.8398)">
			<stop  offset="0" style="stop-color:#7A7A7A"/>
			<stop  offset="1" style="stop-color:#FFFFFF"/>
		</linearGradient>
		<path style="fill-rule:evenodd;clip-rule:evenodd;fill:url(#SVGID_7_);" d="M18.65-3.55c0.733-0.567,1.217-0.983,1.45-1.25
			c-0.233-0.333-0.667-0.733-1.3-1.2c-1.233-0.867-2.833-1.567-4.8-2.1c-0.6-0.167-1.317-0.283-2.15-0.35V-8.5H8.2v0.05
			C7.367-8.383,6.667-8.267,6.1-8.1C4.133-7.567,2.517-6.867,1.25-6C0.65-5.533,0.233-5.133,0-4.8c0.2,0.267,0.667,0.683,1.4,1.25
			c0.733,0.566,2.75,1.566,6.05,3L10.1,0l2.55-0.55l2.6-1.2C17.05-2.583,18.183-3.183,18.65-3.55z"/>
	</g>
</symbol>
<symbol  id="flash0.ai_x5F_2_x2F_Layer_44_copy_x2F__x3C_Path_x3E__x5F_44" viewBox="0 -4.361 20.05 4.361">
	<g id="Layer_1_3_">
		<path style="fill-rule:evenodd;clip-rule:evenodd;fill:#FFFFFF;" d="M14-3.25C16.967-2.483,18.983-1.4,20.05,0v-0.35
			c-0.133-0.333-0.4-0.667-0.8-1c-2.033-1.867-5-2.867-8.9-3c-2.867-0.1-5.45,0.5-7.75,1.8C1.467-1.917,0.6-1.267,0-0.6V0
			c1.1-1.4,3.133-2.483,6.1-3.25C6.667-3.417,7.367-3.533,8.2-3.6v-0.05h3.65v0.05C12.683-3.533,13.4-3.417,14-3.25z"/>
	</g>
</symbol>
<symbol  id="flash0.ai_x5F_2_x2F_Layer_44_copy_x2F__x3C_Path_x3E__x5F_45" viewBox="0.011 -4.9 20.278 4.9">
	<g id="Layer_1_2_">
		<path style="fill-rule:evenodd;clip-rule:evenodd;fill:#5E473C;" d="M20.2-1.2c-0.233-0.333-0.667-0.733-1.3-1.2
			c-1.233-0.867-2.833-1.567-4.8-2.1c-0.9-0.2-1.617-0.317-2.15-0.35V-4.9H8.3v0.05C7.733-4.817,7.033-4.7,6.2-4.5
			C4.233-3.967,2.617-3.267,1.35-2.4C0.75-1.933,0.333-1.533,0.1-1.2c-0.133,0.467-0.117,0.85,0.05,1.15
			c1.2-1.367,3.217-2.434,6.05-3.2C6.767-3.417,7.467-3.533,8.3-3.6v-0.05h3.65v0.05c0.833,0.067,1.55,0.184,2.15,0.35
			C16.967-2.483,18.983-1.4,20.15,0C20.317-0.267,20.333-0.667,20.2-1.2z"/>
	</g>
</symbol>
<symbol  id="flash0.ai_x5F_2_x2F_Layer_44_copy_x2F__x3C_Path_x3E__x5F_5" viewBox="0 -29.688 7.525 29.688">
	<g id="Layer_1_30_">
		<linearGradient id="SVGID_8_" gradientUnits="userSpaceOnUse" x1="-2" y1="-14.8442" x2="4.6" y2="-14.8442">
			<stop  offset="0" style="stop-color:#FFFFFF"/>
			<stop  offset="1" style="stop-color:#000000"/>
		</linearGradient>
		<path style="fill-rule:evenodd;clip-rule:evenodd;fill:url(#SVGID_8_);" d="M0.1,0l4.4-1.5c1.733-10.667,2.733-18.583,3-23.75
			c0.133-3.233-0.267-4.7-1.2-4.4l-1.45,1.4l-1,1.5c-0.633,0.967-1.283,2.433-1.95,4.4c-0.8,2.5-1.316,5.033-1.55,7.6
			C0.15-12.25,0.033-9.167,0-5.5C0-2.433,0.033-0.6,0.1,0z"/>
	</g>
</symbol>
<symbol  id="flash0.ai_x5F_2_x2F_Layer_44_copy_x2F__x3C_Path_x3E__x5F_7" viewBox="0 -3.263 5.283 3.263">
	<g id="Layer_1_29_">
		<path style="fill-rule:evenodd;clip-rule:evenodd;fill:#FFFFFF;" d="M0-2.35C0.2-2.517,0.483-2.667,0.85-2.8
			C1.583-3,2.383-2.95,3.25-2.65c0.767,0.267,1.333,0.783,1.7,1.55C5.117-0.7,5.217-0.333,5.25,0c0.067-0.333,0.033-0.717-0.1-1.15
			c-0.267-0.867-0.883-1.5-1.85-1.9C2.6-3.35,1.833-3.333,1-3C0.6-2.8,0.267-2.583,0-2.35z"/>
	</g>
</symbol>
<g>

		<use xlink:href="#flash0.ai_x5F_2_x2F_Layer_44_copy_x2F__x3C_Path_x3E__x5F_45"  width="20.278" height="4.9" x="0.011" y="-4.9" transform="matrix(0.75 0 0 -0.75 14.1499 59.2002)" style="overflow:visible;opacity:0.3789;enable-background:new    ;"/>

		<use xlink:href="#flash0.ai_x5F_2_x2F_Layer_44_copy_x2F__x3C_Path_x3E__x5F_44"  width="20.05" height="4.361" y="-4.361" transform="matrix(0.75 0 0 -0.75 14.25 59.2002)" style="overflow:visible;opacity:0.4883;enable-background:new    ;"/>

		<use xlink:href="#flash0.ai_x5F_2_x2F_Layer_44_copy_x2F__x3C_Path_x3E__x5F_43"  width="20.1" height="8.5" y="-8.5" transform="matrix(0.75 0 0 -0.75 14.25 55.5498)" style="overflow:visible;opacity:0.3789;enable-background:new    ;"/>

		<use xlink:href="#flash0.ai_x5F_2_x2F_Layer_44_copy_x2F__x3C_Path_x3E__x5F_42"  width="20.1" height="7.7" y="-7.7" transform="matrix(0.75 0 0 -0.75 14.25 56.1504)" style="overflow:visible;opacity:0.2305;enable-background:new    ;"/>

		<use xlink:href="#flash0.ai_x5F_2_x2F_Layer_44_copy_x2F__x3C_Path_x3E__x5F_41"  width="22.742" height="41.1" x="-0.013" y="-41.1" transform="matrix(0.75 0 0 -0.75 13.4502 27.9502)" style="overflow:visible;opacity:0.2813;enable-background:new    ;"/>

		<use xlink:href="#flash0.ai_x5F_2_x2F_Layer_44_copy_x2F__x3C_Path_x3E__x5F_40"  width="22.4" height="5.75" y="-5.75" transform="matrix(0.75 0 0 -0.75 13.5 25.9502)" style="overflow:visible;opacity:0.3398;enable-background:new    ;"/>
	<path style="fill-rule:evenodd;clip-rule:evenodd;fill:#DBABFF;" d="M29.875,32.862c0.025,0.4-0.25,0.851-0.825,1.351
		c-0.6,0.55-1.449,1.062-2.55,1.537c-1.225,0.5-2.949,0.763-5.175,0.787c-2.15,0.025-3.9-0.175-5.25-0.6
		c-1.425-0.45-2.138-1.275-2.138-2.475c0-0.101,0.038-0.188,0.112-0.263c-0.1,0.475,0.038,0.949,0.413,1.425
		c0.4,0.5,0.887,0.825,1.462,0.975c3.9,0.95,7.338,0.9,10.313-0.149C28.487,34.625,29.7,33.763,29.875,32.862z"/>
	<path style="fill-rule:evenodd;clip-rule:evenodd;fill:#FFFBCE;" d="M29.875,32.862c0.025,0.4-0.25,0.851-0.825,1.351
		c-0.6,0.55-1.449,1.062-2.55,1.537c-1.225,0.5-2.949,0.763-5.175,0.787c-2.15,0.025-3.9-0.175-5.25-0.6
		c-1.425-0.45-2.138-1.275-2.138-2.475c0-0.101,0.038-0.188,0.112-0.263c-0.1,0.475,0.038,0.949,0.413,1.425
		c0.4,0.5,0.887,0.825,1.462,0.975c3.9,0.95,7.338,0.9,10.313-0.149C28.487,34.625,29.7,33.763,29.875,32.862z"/>
	<g>

			<use xlink:href="#flash0.ai_x5F_2_x2F_Layer_44_copy_x2F__x3C_Path_x3E__x5F_2"  width="21.536" height="34.2" x="-0.007" y="-34.2" transform="matrix(0.75 0 0 -0.75 13.8999 33.1504)" style="overflow:visible;opacity:0.75;enable-background:new    ;"/>

			<use xlink:href="#flash0.ai_x5F_2_x2F_Layer_44_copy_x2F__x3C_Path_x3E__x5F_1"  width="-32766" height="-32766" x="16383" y="16383" transform="matrix(0.75 0 0 -0.75 29.9004 32.7002)" style="overflow:visible;opacity:0.75;enable-background:new    ;"/>

			<use xlink:href="#flash0.ai_x5F_2_x2F_Layer_44_copy_x2F__x3C_Path_x3E_"  width="-32766" height="-32766" x="16383" y="16383" transform="matrix(0.75 0 0 -0.75 29.8496 32.5996)" style="overflow:visible;opacity:0.75;enable-background:new    ;"/>
	</g>

		<linearGradient id="SVGID_9_" gradientUnits="userSpaceOnUse" x1="-19.5249" y1="-21.1152" x2="4.7768" y2="-21.1152" gradientTransform="matrix(-0.7445 0.0903 -0.0903 -0.7445 13.4498 18.6503)">
		<stop  offset="0" style="stop-color:#EBE0C3"/>
		<stop  offset="1" style="stop-color:#B09F6F"/>
	</linearGradient>
	<path style="fill-rule:evenodd;clip-rule:evenodd;fill:url(#SVGID_9_);" d="M15.925,35.6c-0.725-0.199-1.274-0.625-1.649-1.274
		c-0.4-0.675-0.375-1.237,0.075-1.688c0.8-0.775,2.287-1.238,4.462-1.388c0.675-0.05,1.726-0.188,3.15-0.413
		c1.375-0.15,2.612-0.163,3.712-0.038c2.775,0.4,4.188,1.063,4.238,1.987c0.024,0.851-1.138,1.713-3.488,2.588
		C23.4,36.5,19.9,36.575,15.925,35.6z"/>
	<path style="fill-rule:evenodd;clip-rule:evenodd;fill:#E3E3E3;" d="M16.563,58.138c0,0.425,0.063,0.763,0.188,1.013
		c0.125,0.249,0.375,0.55,0.75,0.899c0.475,0.475,0.738,0.775,0.788,0.9c0.024,0.175-0.313,0.162-1.013-0.038
		c-0.7-0.175-1.3-0.438-1.8-0.787c-0.425-0.3-0.7-0.563-0.825-0.787c-0.1-0.2,0.2-0.514,0.899-0.938
		C16.226,57.975,16.563,57.887,16.563,58.138z"/>
	<path style="fill-rule:evenodd;clip-rule:evenodd;fill:#E3E3E3;" d="M25.112,60.838c1-0.101,1.351-0.025,1.051,0.225
		c-0.275,0.275-0.75,0.463-1.426,0.563c-0.524,0.075-0.662-0.025-0.412-0.3C24.55,61.025,24.813,60.862,25.112,60.838z"/>
	<path style="fill-rule:evenodd;clip-rule:evenodd;fill:#CCB891;" d="M25.825,31.925c0.5,0,0.65,0.125,0.45,0.375
		c-0.2,0.275-0.45,0.388-0.75,0.338c-0.25-0.025-0.325-0.15-0.226-0.375C25.4,32.037,25.575,31.925,25.825,31.925z"/>
	<path style="fill-rule:evenodd;clip-rule:evenodd;fill:#CCB891;" d="M28.675,32.638c0.75-0.025,1.001,0.112,0.75,0.412
		c-0.2,0.3-0.475,0.476-0.824,0.525c-0.226,0.05-0.325-0.088-0.301-0.413C28.351,32.837,28.475,32.662,28.675,32.638z"/>
	<path style="fill-rule:evenodd;clip-rule:evenodd;fill:#CCB891;" d="M24.588,32.938c0.475-0.175,0.725-0.101,0.75,0.225
		c0.024,0.325-0.15,0.488-0.525,0.488c-0.324,0-0.487-0.113-0.487-0.338C24.325,33.112,24.413,32.987,24.588,32.938z"/>

		<use xlink:href="#flash0.ai_x5F_2_x2F_Layer_44_copy_x2F__x3C_Path_x3E__x5F_31"  width="6.05" height="6.05" y="-6.05" transform="matrix(0.75 0 0 -0.75 19.6001 52.8496)" style="overflow:visible;opacity:0.3906;enable-background:new    ;"/>

		<use xlink:href="#flash0.ai_x5F_2_x2F_Layer_44_copy_x2F__x3C_Path_x3E__x5F_30"  width="6.05" height="6.05" y="-6.05" transform="matrix(0.75 0 0 -0.75 19.6001 52.8496)" style="overflow:visible;opacity:0.3516;enable-background:new    ;"/>

		<use xlink:href="#flash0.ai_x5F_2_x2F_Layer_44_copy_x2F__x3C_Compound_Path_x3E__x5F_6"  width="6.2" height="6.2" y="-6.2" transform="matrix(0.75 0 0 -0.75 19.5498 52.7998)" style="overflow:visible;opacity:0.6719;enable-background:new    ;"/>
	<path style="fill-rule:evenodd;clip-rule:evenodd;fill:#FFFFFF;" d="M20.838,53.675c0.375,0,0.438,0.188,0.188,0.563
		c-0.3,0.4-0.513,0.538-0.638,0.413c-0.125-0.126-0.125-0.313,0-0.563C20.513,53.813,20.663,53.675,20.838,53.675z"/>
	<path style="fill-rule:evenodd;clip-rule:evenodd;fill:#FFFFFF;" d="M20.237,54.95c0.1,0.024,0.138,0.1,0.113,0.225
		c-0.025,0.125-0.075,0.163-0.15,0.112c-0.075-0.025-0.1-0.1-0.075-0.225C20.15,54.963,20.188,54.925,20.237,54.95z"/>

		<use xlink:href="#flash0.ai_x5F_2_x2F_Layer_44_copy_x2F__x3C_Path_x3E__x5F_27"  width="4.783" height="2.928" y="-2.928" transform="matrix(0.75 0 0 -0.75 20.2998 54.9502)" style="overflow:visible;opacity:0.2188;enable-background:new    ;"/>

		<use xlink:href="#flash0.ai_x5F_2_x2F_Layer_44_copy_x2F__x3C_Path_x3E__x5F_26"  width="6.3" height="6.3" y="-6.3" transform="matrix(0.75 0 0 -0.75 22.75 45.8496)" style="overflow:visible;opacity:0.3906;enable-background:new    ;"/>

		<use xlink:href="#flash0.ai_x5F_2_x2F_Layer_44_copy_x2F__x3C_Path_x3E__x5F_25"  width="6.3" height="6.3" y="-6.3" transform="matrix(0.75 0 0 -0.75 22.75 45.8496)" style="overflow:visible;opacity:0.6797;enable-background:new    ;"/>

		<use xlink:href="#flash0.ai_x5F_2_x2F_Layer_44_copy_x2F__x3C_Compound_Path_x3E__x5F_5"  width="6.45" height="6.45" y="-6.45" transform="matrix(0.75 0 0 -0.75 22.7002 45.7998)" style="overflow:visible;opacity:0.6719;enable-background:new    ;"/>
	<path style="fill-rule:evenodd;clip-rule:evenodd;fill:#FFFFFF;" d="M24.025,46.7c0.399-0.025,0.463,0.162,0.188,0.563
		c-0.3,0.425-0.513,0.575-0.638,0.45c-0.125-0.126-0.125-0.326,0-0.601C23.7,46.837,23.851,46.7,24.025,46.7z"/>
	<path style="fill-rule:evenodd;clip-rule:evenodd;fill:#FFFFFF;" d="M23.425,48.013c0.101,0.024,0.138,0.1,0.113,0.225
		c-0.025,0.15-0.075,0.2-0.15,0.15c-0.075-0.051-0.1-0.125-0.075-0.226C23.338,48.037,23.375,47.987,23.425,48.013z"/>

		<use xlink:href="#flash0.ai_x5F_2_x2F_Layer_44_copy_x2F__x3C_Path_x3E__x5F_22"  width="4.758" height="3.063" x="0.225" y="-3.063" transform="matrix(0.75 0 0 -0.75 23.5 48)" style="overflow:visible;opacity:0.2188;enable-background:new    ;"/>

		<use xlink:href="#flash0.ai_x5F_2_x2F_Layer_44_copy_x2F__x3C_Path_x3E__x5F_21"  width="5.55" height="5.55" y="-5.55" transform="matrix(0.75 0 0 -0.75 18.6001 46.0996)" style="overflow:visible;opacity:0.3906;enable-background:new    ;"/>

		<radialGradient id="SVGID_10_" cx="35.9277" cy="15.1846" r="3.7665" gradientTransform="matrix(0.4331 0.6123 0.6123 -0.4331 -5.1455 31.8021)" gradientUnits="userSpaceOnUse">
		<stop  offset="0" style="stop-color:#CC9B64"/>
		<stop  offset="1" style="stop-color:#9E6E44"/>
	</radialGradient>
	<path style="fill-rule:evenodd;clip-rule:evenodd;fill:url(#SVGID_10_);" d="M22.788,48.2c0,0.575-0.2,1.062-0.601,1.462
		c-0.425,0.4-0.925,0.601-1.5,0.601c-0.55,0-1.037-0.2-1.462-0.601c-0.4-0.4-0.601-0.887-0.601-1.462s0.2-1.075,0.601-1.5
		c0.399-0.4,0.887-0.601,1.462-0.601c0.575,0,1.075,0.2,1.5,0.601C22.588,47.125,22.788,47.625,22.788,48.2z"/>

		<use xlink:href="#flash0.ai_x5F_2_x2F_Layer_44_copy_x2F__x3C_Compound_Path_x3E__x5F_4"  width="5.75" height="5.7" y="-5.7" transform="matrix(0.75 0 0 -0.75 18.5498 46.0498)" style="overflow:visible;opacity:0.6719;enable-background:new    ;"/>
	<path style="fill-rule:evenodd;clip-rule:evenodd;fill:#FFB778;" d="M19.75,46.85c0.35-0.025,0.4,0.138,0.15,0.488
		c-0.25,0.375-0.438,0.512-0.563,0.412c-0.1-0.1-0.1-0.275,0-0.525C19.438,46.975,19.575,46.85,19.75,46.85z"/>
	<path style="fill-rule:evenodd;clip-rule:evenodd;fill:#FFB778;" d="M19.226,48.013c0.1,0.024,0.125,0.1,0.074,0.225
		c-0.024,0.125-0.074,0.163-0.149,0.112c-0.05-0.05-0.075-0.125-0.075-0.225C19.1,48.025,19.15,47.987,19.226,48.013z"/>

		<use xlink:href="#flash0.ai_x5F_2_x2F_Layer_44_copy_x2F__x3C_Path_x3E__x5F_17"  width="4.258" height="2.751" x="0.175" y="-2.751" transform="matrix(0.75 0 0 -0.75 19.25 48)" style="overflow:visible;opacity:0.2188;enable-background:new    ;"/>

		<use xlink:href="#flash0.ai_x5F_2_x2F_Layer_44_copy_x2F__x3C_Path_x3E__x5F_16"  width="3.75" height="3.75" y="-3.75" transform="matrix(0.75 0 0 -0.75 18.1499 50.2002)" style="overflow:visible;opacity:0.3906;enable-background:new    ;"/>

		<use xlink:href="#flash0.ai_x5F_2_x2F_Layer_44_copy_x2F__x3C_Path_x3E__x5F_15"  width="3.75" height="3.75" y="-3.75" transform="matrix(0.75 0 0 -0.75 18.1499 50.2002)" style="overflow:visible;opacity:0.3516;enable-background:new    ;"/>

		<use xlink:href="#flash0.ai_x5F_2_x2F_Layer_44_copy_x2F__x3C_Compound_Path_x3E__x5F_3"  width="-32766" height="-32766" x="16383" y="16383" transform="matrix(0.75 0 0 -0.75 18.1499 50.1504)" style="overflow:visible;opacity:0.6719;enable-background:new    ;"/>
	<path style="fill-rule:evenodd;clip-rule:evenodd;fill:#FFFFFF;" d="M18.925,50.675c0.25,0,0.288,0.125,0.113,0.375
		c-0.175,0.25-0.301,0.338-0.375,0.263c-0.05-0.075-0.05-0.2,0-0.375C18.737,50.787,18.825,50.7,18.925,50.675z"/>
	<path style="fill-rule:evenodd;clip-rule:evenodd;fill:#FFFFFF;" d="M18.588,51.463c0.05,0.024,0.062,0.074,0.037,0.149
		c0,0.1-0.025,0.125-0.075,0.075c-0.024-0.025-0.037-0.063-0.037-0.112C18.538,51.5,18.563,51.463,18.588,51.463z"/>

		<use xlink:href="#flash0.ai_x5F_2_x2F_Layer_44_copy_x2F__x3C_Path_x3E__x5F_12"  width="2.977" height="1.862" y="-1.862" transform="matrix(0.75 0 0 -0.75 18.6001 51.4502)" style="overflow:visible;opacity:0.2188;enable-background:new    ;"/>

		<use xlink:href="#flash0.ai_x5F_2_x2F_Layer_44_copy_x2F__x3C_Path_x3E__x5F_11"  width="6.7" height="6.75" y="-6.75" transform="matrix(0.75 0 0 -0.75 20.6001 48.5)" style="overflow:visible;opacity:0.3906;enable-background:new    ;"/>

		<use xlink:href="#flash0.ai_x5F_2_x2F_Layer_44_copy_x2F__x3C_Path_x3E__x5F_10"  width="6.7" height="6.75" y="-6.75" transform="matrix(0.75 0 0 -0.75 20.6001 48.5)" style="overflow:visible;opacity:0.3516;enable-background:new    ;"/>

		<use xlink:href="#flash0.ai_x5F_2_x2F_Layer_44_copy_x2F__x3C_Compound_Path_x3E__x5F_2"  width="6.9" height="6.85" y="-6.85" transform="matrix(0.75 0 0 -0.75 20.5498 48.4502)" style="overflow:visible;opacity:0.6719;enable-background:new    ;"/>
	<path style="fill-rule:evenodd;clip-rule:evenodd;fill:#FFFFFF;" d="M21.963,49.4c0.425,0,0.487,0.212,0.188,0.637
		c-0.325,0.45-0.55,0.601-0.675,0.45c-0.126-0.125-0.126-0.325,0-0.6C21.575,49.588,21.737,49.425,21.963,49.4z"/>
	<path style="fill-rule:evenodd;clip-rule:evenodd;fill:#FFFFFF;" d="M21.325,50.825c0.1,0.024,0.138,0.112,0.112,0.263
		c-0.05,0.125-0.112,0.162-0.188,0.112c-0.075-0.025-0.1-0.101-0.075-0.226C21.2,50.85,21.25,50.8,21.325,50.825z"/>

		<use xlink:href="#flash0.ai_x5F_2_x2F_Layer_44_copy_x2F__x3C_Path_x3E__x5F_7"  width="5.283" height="3.263" y="-3.263" transform="matrix(0.75 0 0 -0.75 21.4004 50.8496)" style="overflow:visible;opacity:0.2188;enable-background:new    ;"/>

		<linearGradient id="SVGID_11_" gradientUnits="userSpaceOnUse" x1="1.3486" y1="19.3076" x2="5.6289" y2="19.3076" gradientTransform="matrix(0.7359 -0.1446 0.1446 0.7359 13.4502 18.6498)">
		<stop  offset="0" style="stop-color:#BF9199"/>
		<stop  offset="0.3647" style="stop-color:#CC99AE"/>
		<stop  offset="1" style="stop-color:#D18E9B"/>
	</linearGradient>
	<path style="fill-rule:evenodd;clip-rule:evenodd;fill:url(#SVGID_11_);" d="M17.65,35.075l-1.388-5.325l1.425,0.3
		c0.725,0.125,1.488,0.2,2.288,0.225l0.149,0.9c0.1,0.5,0.25,1.638,0.45,3.413c0,0.375-0.388,0.625-1.162,0.75
		C18.638,35.487,18.05,35.4,17.65,35.075z"/>

		<use xlink:href="#flash0.ai_x5F_2_x2F_Layer_44_copy_x2F__x3C_Path_x3E__x5F_5"  width="7.525" height="29.688" y="-29.688" transform="matrix(0.75 0 0 -0.75 15 28.8999)" style="overflow:visible;opacity:0.6602;enable-background:new    ;"/>

		<use xlink:href="#flash0.ai_x5F_2_x2F_Layer_44_copy_x2F__x3C_Path_x3E__x5F_4"  width="4.778" height="25.71" x="-0.178" y="-25.71" transform="matrix(0.75 0 0 -0.75 25.3496 29.25)" style="overflow:visible;opacity:0.4414;enable-background:new    ;"/>
	<path style="fill-rule:evenodd;clip-rule:evenodd;fill:#C9C9C9;" d="M21.925,25.962c2.325,0,4.313,0.212,5.963,0.638
		c1.625,0.425,2.438,0.925,2.438,1.5c0,0.6-0.813,1.112-2.438,1.537c-1.65,0.425-3.638,0.638-5.963,0.638
		c-2.3,0-4.274-0.212-5.925-0.638c-1.649-0.425-2.475-0.938-2.475-1.537c0-0.575,0.825-1.075,2.475-1.5
		C17.65,26.175,19.625,25.962,21.925,25.962z M27.4,26.825c-1.5-0.325-3.3-0.487-5.4-0.487c-2.1,0-3.887,0.163-5.362,0.487
		c-1.475,0.325-2.213,0.725-2.213,1.2s0.738,0.875,2.213,1.2C18.113,29.55,19.9,29.712,22,29.712c2.101,0,3.9-0.163,5.4-0.487
		c1.475-0.325,2.212-0.725,2.212-1.2S28.875,27.15,27.4,26.825z"/>
	<path style="fill-rule:evenodd;clip-rule:evenodd;fill:#C9C9C9;" d="M29.8,27.538l0.413,0.037l0.037,0.188
		c0.25,2.1,0.275,5.15,0.075,9.15C30.051,43.188,29.101,47.55,27.476,50c-1.3,1.975-2.163,3.9-2.588,5.775
		c-0.225,0.925-0.313,1.662-0.263,2.212c0,0.649-0.862,0.976-2.587,0.976h-0.226c-1.725,0-2.587-0.326-2.587-0.976
		c0.05-0.55-0.038-1.287-0.263-2.212C18.538,53.9,17.675,51.975,16.375,50c-1.5-2.275-2.425-6.263-2.774-11.963
		c-0.201-3.25-0.213-6.575-0.038-9.975l0.375-0.038c0.125,0.475,0.9,0.913,2.325,1.313c1.575,0.4,3.462,0.6,5.662,0.6
		c2.25,0,4.163-0.213,5.738-0.638c1.5-0.4,2.25-0.862,2.25-1.387L29.8,27.538z M21.925,30.275c-2.925,0-5.2-0.313-6.824-0.938
		c-0.576-0.25-0.976-0.487-1.2-0.712c-0.175,3.475-0.138,6.837,0.112,10.088c0.375,5.25,1.262,8.938,2.662,11.063
		c1.351,2.05,2.238,4.012,2.663,5.887c0.225,0.976,0.313,1.763,0.263,2.363c0,0.125,0.149,0.236,0.449,0.337
		c0.4,0.15,0.988,0.226,1.763,0.226h0.226c1.425,0,2.175-0.2,2.25-0.601c-0.126-0.35-0.051-1.125,0.225-2.325
		c0.425-1.875,1.313-3.837,2.662-5.887c1.4-2.125,2.288-5.838,2.663-11.138c0.225-3.15,0.263-6.487,0.112-10.013
		c-0.525,0.525-1.575,0.938-3.15,1.237C25.351,30.138,23.726,30.275,21.925,30.275z"/>

		<linearGradient id="SVGID_12_" gradientUnits="userSpaceOnUse" x1="1.0557" y1="3.1279" x2="6.6843" y2="3.1279" gradientTransform="matrix(0.7362 -0.1432 0.1432 0.7362 13.4505 18.6499)">
		<stop  offset="0" style="stop-color:#BF9199"/>
		<stop  offset="0.3647" style="stop-color:#CC99AE"/>
		<stop  offset="1" style="stop-color:#D18E9B"/>
	</linearGradient>
	<path style="fill-rule:evenodd;clip-rule:evenodd;fill:url(#SVGID_12_);" d="M15.888,22.288c-0.45,0.2-0.9-0.1-1.35-0.9
		c-0.226-0.4-0.4-0.812-0.525-1.237c-0.025-0.1,0.025-0.225,0.15-0.375c0.225-0.325,0.7-0.6,1.425-0.825
		c0.875-0.3,1.625-0.387,2.25-0.262c0.625,0.1,0.85,0.337,0.675,0.712c-0.125,0.35-0.563,0.913-1.313,1.688
		C16.525,21.787,16.088,22.188,15.888,22.288z"/>

		<linearGradient id="SVGID_13_" gradientUnits="userSpaceOnUse" x1="1.0322" y1="9.0488" x2="6.6363" y2="9.0488" gradientTransform="matrix(0.7361 -0.1439 0.1439 0.7361 13.4504 18.6498)">
		<stop  offset="0" style="stop-color:#BF5E70"/>
		<stop  offset="0.3647" style="stop-color:#CC648F"/>
		<stop  offset="1" style="stop-color:#9E4455"/>
	</linearGradient>
	<path style="fill-rule:evenodd;clip-rule:evenodd;fill:url(#SVGID_13_);" d="M14.013,20.15c0.325,0.375,1.1,0.45,2.325,0.225
		c1.025-0.175,1.775-0.55,2.25-1.125c0.2,1.875,0.387,3.4,0.563,4.575l0.825,5.775l-2.138-0.15
		c-0.875-0.075-1.463-0.212-1.763-0.412c-0.3-1.1-0.525-2.15-0.675-3.15C15.225,24.888,14.763,22.975,14.013,20.15z"/>

		<linearGradient id="SVGID_14_" gradientUnits="userSpaceOnUse" x1="1.3472" y1="1.8955" x2="6.3678" y2="1.8955" gradientTransform="matrix(0.7357 -0.1457 0.1457 0.7357 13.4502 18.6501)">
		<stop  offset="0" style="stop-color:#7A3C47"/>
		<stop  offset="0.6745" style="stop-color:#CC648F"/>
	</linearGradient>
	<path style="fill-rule:evenodd;clip-rule:evenodd;fill:url(#SVGID_14_);" d="M14.275,20c0.1-0.4,0.638-0.737,1.612-1.013
		c0.725-0.225,1.35-0.287,1.875-0.188c0.275,0.05,0.462,0.125,0.563,0.225c-0.05,0.15-0.175,0.313-0.375,0.487
		c-0.425,0.35-1.025,0.587-1.8,0.713C15.05,20.4,14.425,20.325,14.275,20z"/>

		<linearGradient id="SVGID_15_" gradientUnits="userSpaceOnUse" x1="1.7803" y1="32.2656" x2="5.1682" y2="32.2656" gradientTransform="matrix(0.7361 -0.1439 0.1439 0.7361 13.4502 18.65)">
		<stop  offset="0" style="stop-color:#BF9199"/>
		<stop  offset="0.3647" style="stop-color:#CC99AE"/>
		<stop  offset="1" style="stop-color:#D18E9B"/>
	</linearGradient>
	<path style="fill-rule:evenodd;clip-rule:evenodd;fill:url(#SVGID_15_);" d="M19.375,37.138c0.5,0.05,0.988,0.012,1.463-0.112
		l0.563,2.25c0.175,0.725,0.575,2.975,1.2,6.75c-0.025,0.475-0.426,0.762-1.2,0.862c-0.8,0.1-1.3-0.063-1.5-0.487l-1.688-9.15
		l0.3-0.075C18.788,37.125,19.075,37.112,19.375,37.138z"/>
</g>
</svg>
