<?xml version="1.0" encoding="iso-8859-1"?>
<!-- Generator: Adobe Illustrator 15.1.0, SVG Export Plug-In . SVG Version: 6.00 Build 0)  -->
<!DOCTYPE svg PUBLIC "-//W3C//DTD SVG 1.1//EN" "http://www.w3.org/Graphics/SVG/1.1/DTD/svg11.dtd">
<svg version="1.1" id="flash0.ai" xmlns="http://www.w3.org/2000/svg" xmlns:xlink="http://www.w3.org/1999/xlink" x="0px" y="0px"
	 width="31.75px" height="26.15px" viewBox="0 0 31.75 26.15" style="enable-background:new 0 0 31.75 26.15;" xml:space="preserve"
	>
<symbol  id="cubimal_1_" viewBox="-3.734 -26.614 29.484 26.147">
	<g id="Layer_1_5_">
		<g>
			<g>

					<linearGradient id="SVGID_1_" gradientUnits="userSpaceOnUse" x1="-2093.2891" y1="-13469.4824" x2="-2086.9087" y2="-13469.4824" gradientTransform="matrix(0.3056 -0.9522 0.9522 0.3056 13464.5625 2107.167)">
					<stop  offset="0" style="stop-color:#6B9118"/>
					<stop  offset="1" style="stop-color:#4B6416"/>
				</linearGradient>
				<path style="fill-rule:evenodd;clip-rule:evenodd;fill:url(#SVGID_1_);" d="M1.1-14.7l3.8-2.25v-2.35
					c-0.133-1.6-0.6-2.583-1.4-2.95c-0.867-0.4-2.133-0.383-3.8,0.05c-1.267,0.333-2.283,0.733-3.05,1.2
					c-0.433,0.233-0.5,0.567-0.2,1c0.133,0.133,0.683,0.667,1.65,1.6C-0.934-17.467,0.066-16.234,1.1-14.7z"/>

					<linearGradient id="SVGID_2_" gradientUnits="userSpaceOnUse" x1="-3028.9961" y1="-10994.9023" x2="-3024.7686" y2="-10994.9023" gradientTransform="matrix(0.5145 -0.8575 0.8575 0.5145 10982.5449 3041.2656)">
					<stop  offset="0" style="stop-color:#8DBE21"/>
					<stop  offset="1" style="stop-color:#709321"/>
				</linearGradient>
				<path style="fill-rule:evenodd;clip-rule:evenodd;fill:url(#SVGID_2_);" d="M-2.1-20c0.2-0.3,0.1-0.55-0.3-0.75
					c-0.333-0.2-0.6-0.167-0.8,0.1c-0.2,0.3-0.1,0.55,0.3,0.75C-2.566-19.7-2.3-19.734-2.1-20z"/>

					<linearGradient id="SVGID_3_" gradientUnits="userSpaceOnUse" x1="-3029.0137" y1="-10993.1035" x2="-3024.7861" y2="-10993.1035" gradientTransform="matrix(0.5145 -0.8575 0.8575 0.5145 10982.5449 3041.2656)">
					<stop  offset="0" style="stop-color:#8DBE21"/>
					<stop  offset="1" style="stop-color:#709321"/>
				</linearGradient>
				<path style="fill-rule:evenodd;clip-rule:evenodd;fill:url(#SVGID_3_);" d="M-0.85-18.65c0.267-0.267,0.25-0.533-0.05-0.8
					c-0.3-0.333-0.567-0.384-0.8-0.15s-0.217,0.5,0.05,0.8C-1.35-18.5-1.083-18.45-0.85-18.65z"/>

					<linearGradient id="SVGID_4_" gradientUnits="userSpaceOnUse" x1="-3029.0303" y1="-10991.3008" x2="-3024.8027" y2="-10991.3008" gradientTransform="matrix(0.5145 -0.8575 0.8575 0.5145 10982.5449 3041.2656)">
					<stop  offset="0" style="stop-color:#8DBE21"/>
					<stop  offset="1" style="stop-color:#709321"/>
				</linearGradient>
				<path style="fill-rule:evenodd;clip-rule:evenodd;fill:url(#SVGID_4_);" d="M0.4-17.25c0.1-0.066,0.15-0.183,0.15-0.35
					c0-0.167-0.066-0.316-0.2-0.45c-0.3-0.3-0.567-0.333-0.8-0.1c-0.1,0.066-0.15,0.184-0.15,0.35s0.067,0.316,0.2,0.45
					C-0.1-17.05,0.167-17.017,0.4-17.25z"/>

					<linearGradient id="SVGID_5_" gradientUnits="userSpaceOnUse" x1="-3029.0137" y1="-10993.9805" x2="-3024.7861" y2="-10993.9805" gradientTransform="matrix(0.5145 -0.8575 0.8575 0.5145 10982.5449 3041.2656)">
					<stop  offset="0" style="stop-color:#8DBE21"/>
					<stop  offset="1" style="stop-color:#709321"/>
				</linearGradient>
				<path style="fill-rule:evenodd;clip-rule:evenodd;fill:url(#SVGID_5_);" d="M-0.75-20.5c0.167-0.267,0.083-0.517-0.25-0.75
					c-0.367-0.233-0.633-0.2-0.8,0.1c-0.167,0.267-0.083,0.517,0.25,0.75C-1.184-20.167-0.917-20.2-0.75-20.5z"/>

					<linearGradient id="SVGID_6_" gradientUnits="userSpaceOnUse" x1="-3029.0137" y1="-10992.2441" x2="-3024.7861" y2="-10992.2441" gradientTransform="matrix(0.5145 -0.8575 0.8575 0.5145 10982.5449 3041.2656)">
					<stop  offset="0" style="stop-color:#8DBE21"/>
					<stop  offset="1" style="stop-color:#709321"/>
				</linearGradient>
				<path style="fill-rule:evenodd;clip-rule:evenodd;fill:url(#SVGID_6_);" d="M0.75-19.601c0.2-0.333,0.117-0.583-0.25-0.75
					c-0.333-0.233-0.6-0.216-0.8,0.05c-0.2,0.333-0.117,0.583,0.25,0.75C0.283-19.317,0.55-19.334,0.75-19.601z"/>
			</g>
			<g>

					<linearGradient id="SVGID_7_" gradientUnits="userSpaceOnUse" x1="360.2876" y1="319.168" x2="362.0392" y2="319.168" gradientTransform="matrix(0.9991 0.0428 -0.0428 0.9991 -342.665 -357.6221)">
					<stop  offset="0" style="stop-color:#7AA41C"/>
					<stop  offset="1" style="stop-color:#5D7A1B"/>
				</linearGradient>
				<path style="fill-rule:evenodd;clip-rule:evenodd;fill:url(#SVGID_7_);" d="M5.15-25.601C4.35-25.4,3.5-23.867,2.6-21l4.65-0.35
					C6.517-24.351,5.816-25.767,5.15-25.601z"/>

					<linearGradient id="SVGID_8_" gradientUnits="userSpaceOnUse" x1="369.5361" y1="317.7695" x2="371.2878" y2="317.7695" gradientTransform="matrix(0.9991 0.0428 -0.0428 0.9991 -342.665 -357.6221)">
					<stop  offset="0" style="stop-color:#7AA41C"/>
					<stop  offset="1" style="stop-color:#5D7A1B"/>
				</linearGradient>
				<path style="fill-rule:evenodd;clip-rule:evenodd;fill:url(#SVGID_8_);" d="M11.9-22l4.7-0.35c-0.4-1.5-0.683-2.45-0.85-2.85
					c-0.4-1.034-0.816-1.5-1.25-1.4C13.667-26.4,12.8-24.867,11.9-22z"/>

					<linearGradient id="SVGID_9_" gradientUnits="userSpaceOnUse" x1="377.3916" y1="321.2871" x2="379.1432" y2="321.2871" gradientTransform="matrix(0.9991 0.0428 -0.0428 0.9991 -342.665 -357.6221)">
					<stop  offset="0" style="stop-color:#7AA41C"/>
					<stop  offset="1" style="stop-color:#5D7A1B"/>
				</linearGradient>
				<path style="fill-rule:evenodd;clip-rule:evenodd;fill:url(#SVGID_9_);" d="M19.6-18.15l4.65-0.35
					c-0.733-3-1.434-4.417-2.1-4.25C21.35-22.55,20.5-21.017,19.6-18.15z"/>
			</g>
			<g>

					<linearGradient id="SVGID_10_" gradientUnits="userSpaceOnUse" x1="-2107.6719" y1="-13443.209" x2="-2088.5234" y2="-13443.209" gradientTransform="matrix(0.3068 -0.9518 0.9518 0.3068 13451.7744 2113.7334)">
					<stop  offset="0" style="stop-color:#7AA41C"/>
					<stop  offset="1" style="stop-color:#5D7A1B"/>
				</linearGradient>
				<path style="fill-rule:evenodd;clip-rule:evenodd;fill:url(#SVGID_10_);" d="M10.4-1.05c0.9,0.033,2.833-0.15,5.8-0.55
					c3.133-0.433,5.066-0.65,5.8-0.65c1.1,0,1.934-0.216,2.5-0.65c0.367-0.3,0.65-0.767,0.85-1.4c0.1-0.434,0.167-2.333,0.2-5.7
					c0.033-3.066,0.033-5.017,0-5.85v-1.45c-0.033-0.5-0.183-0.95-0.45-1.35c-0.267-0.434-1.167-1.184-2.7-2.25
					c-1.333-0.967-2.3-1.6-2.9-1.9c-1.7-0.934-2.967-1.4-3.8-1.4c-2.434,0.3-4.3,0.45-5.6,0.45c-0.767,0.034-2.217,0.2-4.35,0.5
					C3.65-22.95,2.4-22.767,2-22.7c-0.7,0.133-1.184,0.433-1.45,0.9C0.217-21.134,0.033-19.784,0-17.75
					c-0.133,3.233-0.2,5.6-0.2,7.1C-0.167-7.984,0.2-6.4,0.9-5.9c0.967,0.667,2.5,1.566,4.6,2.7C8.033-1.8,9.667-1.084,10.4-1.05z"
					/>
				<g>

						<linearGradient id="SVGID_11_" gradientUnits="userSpaceOnUse" x1="-3220.8311" y1="-10094.2295" x2="-3204.5913" y2="-10094.2295" gradientTransform="matrix(0.5804 -0.8144 0.8144 0.5804 10091.1738 3227.2158)">
						<stop  offset="0" style="stop-color:#8DBE21"/>
						<stop  offset="1" style="stop-color:#709321"/>
					</linearGradient>
					<path style="fill-rule:evenodd;clip-rule:evenodd;fill:url(#SVGID_11_);" d="M3.3-9.3c0-0.367-0.083-0.684-0.25-0.95
						c-0.2-0.267-0.433-0.4-0.7-0.4c-0.267,0-0.483,0.133-0.65,0.4C1.5-9.984,1.4-9.667,1.4-9.3c0,0.4,0.1,0.733,0.3,1
						c0.167,0.267,0.383,0.4,0.65,0.4c0.267,0,0.5-0.133,0.7-0.4C3.217-8.567,3.3-8.9,3.3-9.3z"/>

						<linearGradient id="SVGID_12_" gradientUnits="userSpaceOnUse" x1="-3220.835" y1="-10096.5361" x2="-3204.5952" y2="-10096.5361" gradientTransform="matrix(0.5804 -0.8144 0.8144 0.5804 10091.1738 3227.2158)">
						<stop  offset="0" style="stop-color:#8DBE21"/>
						<stop  offset="1" style="stop-color:#709321"/>
					</linearGradient>
					<path style="fill-rule:evenodd;clip-rule:evenodd;fill:url(#SVGID_12_);" d="M3.3-13.25c0-0.367-0.083-0.683-0.25-0.95
						c-0.2-0.267-0.433-0.4-0.7-0.4c-0.267,0-0.483,0.134-0.65,0.4c-0.2,0.267-0.3,0.583-0.3,0.95s0.1,0.684,0.3,0.95
						c0.167,0.267,0.383,0.4,0.65,0.4c0.267,0,0.5-0.133,0.7-0.4C3.217-12.567,3.3-12.884,3.3-13.25z"/>

						<linearGradient id="SVGID_13_" gradientUnits="userSpaceOnUse" x1="-3220.8438" y1="-10099.0176" x2="-3204.604" y2="-10099.0176" gradientTransform="matrix(0.5804 -0.8144 0.8144 0.5804 10091.1738 3227.2158)">
						<stop  offset="0" style="stop-color:#8DBE21"/>
						<stop  offset="1" style="stop-color:#709321"/>
					</linearGradient>
					<path style="fill-rule:evenodd;clip-rule:evenodd;fill:url(#SVGID_13_);" d="M3.3-17.55c0-0.367-0.083-0.684-0.25-0.95
						c-0.2-0.267-0.433-0.4-0.7-0.4c-0.267,0-0.483,0.133-0.65,0.4c-0.2,0.267-0.3,0.583-0.3,0.95s0.1,0.7,0.3,1
						c0.2,0.267,0.417,0.4,0.65,0.4c0.267,0,0.5-0.133,0.7-0.4C3.217-16.851,3.3-17.184,3.3-17.55z"/>

						<linearGradient id="SVGID_14_" gradientUnits="userSpaceOnUse" x1="-3220.8457" y1="-10092.0039" x2="-3204.606" y2="-10092.0039" gradientTransform="matrix(0.5804 -0.8144 0.8144 0.5804 10091.1738 3227.2158)">
						<stop  offset="0" style="stop-color:#8DBE21"/>
						<stop  offset="1" style="stop-color:#709321"/>
					</linearGradient>
					<path style="fill-rule:evenodd;clip-rule:evenodd;fill:url(#SVGID_14_);" d="M6.4-9.75c0-0.367-0.1-0.683-0.3-0.95
						c-0.167-0.267-0.383-0.4-0.65-0.4s-0.5,0.134-0.7,0.4C4.583-10.434,4.5-10.117,4.5-9.75s0.083,0.7,0.25,1
						c0.2,0.267,0.434,0.4,0.7,0.4s0.483-0.133,0.65-0.4C6.3-9.05,6.4-9.384,6.4-9.75z"/>

						<linearGradient id="SVGID_15_" gradientUnits="userSpaceOnUse" x1="-3220.8486" y1="-10094.3262" x2="-3204.6089" y2="-10094.3262" gradientTransform="matrix(0.5804 -0.8144 0.8144 0.5804 10091.1738 3227.2158)">
						<stop  offset="0" style="stop-color:#8DBE21"/>
						<stop  offset="1" style="stop-color:#709321"/>
					</linearGradient>
					<path style="fill-rule:evenodd;clip-rule:evenodd;fill:url(#SVGID_15_);" d="M6.4-13.7c0-0.367-0.1-0.7-0.3-1
						c-0.167-0.267-0.383-0.4-0.65-0.4s-0.5,0.134-0.7,0.4c-0.167,0.3-0.25,0.633-0.25,1c0,0.366,0.083,0.683,0.25,0.95
						c0.2,0.267,0.434,0.4,0.7,0.4s0.483-0.133,0.65-0.4C6.3-13.017,6.4-13.334,6.4-13.7z"/>

						<linearGradient id="SVGID_16_" gradientUnits="userSpaceOnUse" x1="-3220.8574" y1="-10096.8223" x2="-3204.6177" y2="-10096.8223" gradientTransform="matrix(0.5804 -0.8144 0.8144 0.5804 10091.1738 3227.2158)">
						<stop  offset="0" style="stop-color:#8DBE21"/>
						<stop  offset="1" style="stop-color:#709321"/>
					</linearGradient>
					<path style="fill-rule:evenodd;clip-rule:evenodd;fill:url(#SVGID_16_);" d="M6.4-18c0-0.367-0.1-0.7-0.3-1
						c-0.167-0.267-0.383-0.4-0.65-0.4s-0.5,0.133-0.7,0.4c-0.167,0.3-0.25,0.633-0.25,1s0.083,0.684,0.25,0.95
						c0.2,0.267,0.434,0.4,0.7,0.4s0.483-0.133,0.65-0.4C6.3-17.317,6.4-17.634,6.4-18z"/>

						<linearGradient id="SVGID_17_" gradientUnits="userSpaceOnUse" x1="-3220.8252" y1="-10089.5225" x2="-3204.5854" y2="-10089.5225" gradientTransform="matrix(0.5804 -0.8144 0.8144 0.5804 10091.1738 3227.2158)">
						<stop  offset="0" style="stop-color:#8DBE21"/>
						<stop  offset="1" style="stop-color:#709321"/>
					</linearGradient>
					<path style="fill-rule:evenodd;clip-rule:evenodd;fill:url(#SVGID_17_);" d="M9.65-10.101c0-0.366-0.083-0.683-0.25-0.95
						c-0.2-0.267-0.433-0.4-0.7-0.4s-0.483,0.133-0.65,0.4c-0.2,0.267-0.3,0.583-0.3,0.95c0,0.367,0.1,0.7,0.3,1
						c0.2,0.267,0.417,0.4,0.65,0.4c0.267,0,0.5-0.134,0.7-0.4C9.566-9.4,9.65-9.734,9.65-10.101z"/>

						<linearGradient id="SVGID_18_" gradientUnits="userSpaceOnUse" x1="-3220.8691" y1="-10091.8301" x2="-3204.6294" y2="-10091.8301" gradientTransform="matrix(0.5804 -0.8144 0.8144 0.5804 10091.1738 3227.2158)">
						<stop  offset="0" style="stop-color:#8DBE21"/>
						<stop  offset="1" style="stop-color:#709321"/>
					</linearGradient>
					<path style="fill-rule:evenodd;clip-rule:evenodd;fill:url(#SVGID_18_);" d="M9.65-14.05c0-0.367-0.083-0.684-0.25-0.95
						c-0.2-0.267-0.433-0.4-0.7-0.4S8.217-15.267,8.05-15c-0.2,0.267-0.3,0.583-0.3,0.95s0.1,0.683,0.3,0.95
						c0.167,0.267,0.384,0.4,0.65,0.4s0.5-0.134,0.7-0.4C9.566-13.367,9.65-13.684,9.65-14.05z"/>

						<linearGradient id="SVGID_19_" gradientUnits="userSpaceOnUse" x1="-3220.8779" y1="-10094.3379" x2="-3204.6382" y2="-10094.3379" gradientTransform="matrix(0.5804 -0.8144 0.8144 0.5804 10091.1738 3227.2158)">
						<stop  offset="0" style="stop-color:#8DBE21"/>
						<stop  offset="1" style="stop-color:#709321"/>
					</linearGradient>
					<path style="fill-rule:evenodd;clip-rule:evenodd;fill:url(#SVGID_19_);" d="M9.65-18.351c0-0.366-0.083-0.7-0.25-1
						c-0.2-0.267-0.433-0.4-0.7-0.4c-0.233,0-0.45,0.133-0.65,0.4c-0.2,0.3-0.3,0.634-0.3,1c0,0.367,0.1,0.684,0.3,0.95
						C8.217-17.134,8.434-17,8.7-17s0.5-0.133,0.7-0.4C9.566-17.667,9.65-17.984,9.65-18.351z"/>

						<linearGradient id="SVGID_20_" gradientUnits="userSpaceOnUse" x1="-3220.8047" y1="-10086.6602" x2="-3204.5649" y2="-10086.6602" gradientTransform="matrix(0.5804 -0.8144 0.8144 0.5804 10091.1738 3227.2158)">
						<stop  offset="0" style="stop-color:#8DBE21"/>
						<stop  offset="1" style="stop-color:#709321"/>
					</linearGradient>
					<path style="fill-rule:evenodd;clip-rule:evenodd;fill:url(#SVGID_20_);" d="M13.5-10.5c0-0.367-0.1-0.683-0.3-0.95
						c-0.2-0.267-0.434-0.4-0.7-0.4s-0.483,0.134-0.65,0.4c-0.2,0.267-0.3,0.583-0.3,0.95s0.1,0.7,0.3,1
						c0.2,0.267,0.417,0.4,0.65,0.4c0.267,0,0.5-0.133,0.7-0.4C13.4-9.8,13.5-10.134,13.5-10.5z"/>

						<linearGradient id="SVGID_21_" gradientUnits="userSpaceOnUse" x1="-3220.8076" y1="-10088.9805" x2="-3204.5679" y2="-10088.9805" gradientTransform="matrix(0.5804 -0.8144 0.8144 0.5804 10091.1738 3227.2158)">
						<stop  offset="0" style="stop-color:#8DBE21"/>
						<stop  offset="1" style="stop-color:#709321"/>
					</linearGradient>
					<path style="fill-rule:evenodd;clip-rule:evenodd;fill:url(#SVGID_21_);" d="M13.5-14.45c0-0.367-0.1-0.7-0.3-1
						c-0.2-0.267-0.434-0.4-0.7-0.4c-0.233,0-0.45,0.134-0.65,0.4c-0.2,0.3-0.3,0.633-0.3,1c0,0.366,0.1,0.683,0.3,0.95
						c0.167,0.267,0.383,0.4,0.65,0.4s0.5-0.133,0.7-0.4C13.4-13.767,13.5-14.084,13.5-14.45z"/>

						<linearGradient id="SVGID_22_" gradientUnits="userSpaceOnUse" x1="-3220.8574" y1="-10091.4766" x2="-3204.6177" y2="-10091.4766" gradientTransform="matrix(0.5804 -0.8144 0.8144 0.5804 10091.1738 3227.2158)">
						<stop  offset="0" style="stop-color:#8DBE21"/>
						<stop  offset="1" style="stop-color:#709321"/>
					</linearGradient>
					<path style="fill-rule:evenodd;clip-rule:evenodd;fill:url(#SVGID_22_);" d="M13.5-18.75c0-0.367-0.1-0.7-0.3-1
						c-0.2-0.267-0.434-0.4-0.7-0.4c-0.233,0-0.45,0.133-0.65,0.4c-0.2,0.3-0.3,0.633-0.3,1s0.1,0.684,0.3,0.95
						c0.167,0.267,0.383,0.4,0.65,0.4s0.5-0.133,0.7-0.4C13.4-18.067,13.5-18.384,13.5-18.75z"/>
				</g>

					<linearGradient id="SVGID_23_" gradientUnits="userSpaceOnUse" x1="-2091.7285" y1="-13459.0801" x2="-2081.751" y2="-13459.0801" gradientTransform="matrix(0.3057 -0.9521 0.9521 0.3057 13463.958 2107.4785)">
					<stop  offset="0" style="stop-color:#604830"/>
					<stop  offset="1" style="stop-color:#332418"/>
				</linearGradient>
				<path style="fill-rule:evenodd;clip-rule:evenodd;fill:url(#SVGID_23_);" d="M17.75-17.601l5.05-3
					c-1.133-0.866-2.233-1.6-3.3-2.2c-1.7-0.934-2.967-1.4-3.8-1.4c-2.434,0.3-4.3,0.45-5.6,0.45c-0.767,0.034-2.217,0.2-4.35,0.5
					C3.65-22.95,2.4-22.767,2-22.7c-0.7,0.133-1.184,0.433-1.45,0.9C0.217-21.134,0.033-19.784,0-17.75l-0.05,1.4
					c2.533-0.8,7.917-1.383,16.15-1.75C16.333-18.101,16.883-17.934,17.75-17.601z"/>
			</g>
			<g>

					<linearGradient id="SVGID_24_" gradientUnits="userSpaceOnUse" x1="-2370.5361" y1="-12878.0059" x2="-2353.5383" y2="-12878.0059" gradientTransform="matrix(0.3574 -0.934 0.934 0.3574 12892.376 2381.7461)">
					<stop  offset="0" style="stop-color:#6B9118"/>
					<stop  offset="1" style="stop-color:#4B6416"/>
				</linearGradient>
				<path style="fill-rule:evenodd;clip-rule:evenodd;fill:url(#SVGID_24_);" d="M24.65-3.05c0.3-0.333,0.534-0.75,0.7-1.25
					l0.15-2.6c0.133-4.333,0.15-7.316,0.05-8.95v-1.45c-0.033-0.5-0.183-0.95-0.45-1.35c-0.267-0.434-1.167-1.184-2.7-2.25
					c-1.333-0.967-2.3-1.6-2.9-1.9c-0.333-0.167-0.967-0.434-1.9-0.8c-1-0.366-1.633-0.566-1.9-0.6c0.3,0.6,0.45,1.316,0.45,2.15
					l-0.1,14c0,0.066,0.033,0.117,0.1,0.15c0.167,0.2,1.067,0.7,2.7,1.5c1.867,0.9,3.05,1.517,3.55,1.85
					C22.833-4.25,23.583-3.75,24.65-3.05z"/>
			</g>
			<g>

					<linearGradient id="SVGID_25_" gradientUnits="userSpaceOnUse" x1="-2360.3242" y1="-12882.3301" x2="-2353.0442" y2="-12882.3301" gradientTransform="matrix(0.3571 -0.9341 0.9341 0.3571 12895.3623 2380.4111)">
					<stop  offset="0" style="stop-color:#E9E4C9"/>
					<stop  offset="1" style="stop-color:#8A8771"/>
				</linearGradient>
				<path style="fill-rule:evenodd;clip-rule:evenodd;fill:url(#SVGID_25_);" d="M16.1-18.101c0.833,0.1,1.483,0.25,1.95,0.45
					c2.533,1.167,5.1,2.767,7.7,4.8L25.7-15.3c0-1.6-0.2-2.717-0.6-3.35c-0.267-0.434-1.167-1.184-2.7-2.25
					c-1.333-0.967-2.3-1.6-2.9-1.9c-0.333-0.167-0.967-0.434-1.9-0.8c-1-0.366-1.633-0.566-1.9-0.6c0.3,0.6,0.45,1.316,0.45,2.15
					L16.1-18.101z"/>
				<path style="fill-rule:evenodd;clip-rule:evenodd;fill:#354444;" d="M23.15-15.3c0.333-0.167,0.5-0.383,0.5-0.65
					c0-0.3-0.133-0.684-0.4-1.15l0.9-0.85l0.25-0.9c-1.433-1.5-2.45-2.2-3.05-2.1c-0.367,0.033-0.517,0.15-0.45,0.35
					c0.2,0.267,0.35,0.483,0.45,0.65c0.2,0.333,0.466,1.167,0.8,2.5c-0.333,0.033-0.533,0.216-0.6,0.55
					c-0.066,0.2,0.017,0.5,0.25,0.9c0.1,0.167,0.217,0.333,0.35,0.5C22.45-15.167,22.783-15.101,23.15-15.3z"/>
				<path style="fill-rule:evenodd;clip-rule:evenodd;fill:#1D2626;" d="M22.6-15.25c-0.534-0.533-0.683-0.95-0.45-1.25
					c0.3-0.433,0.667-0.633,1.1-0.6l-0.6-0.8l-0.3-1.05c-0.1-0.733,0.083-1.117,0.55-1.15H23c-0.367-0.3-0.733-0.533-1.1-0.7
					l-0.25,0.05c-0.033,0-0.033-0.05,0-0.15l-0.15-0.05l-0.35,0.55l-0.05,0.1l0.25,0.35c0.2,0.333,0.466,1.167,0.8,2.5
					c-0.333,0.033-0.533,0.216-0.6,0.55c-0.066,0.2,0.017,0.5,0.25,0.9c0.1,0.167,0.217,0.333,0.35,0.5
					C22.316-15.334,22.467-15.25,22.6-15.25z"/>
			</g>
			<g>

					<linearGradient id="SVGID_26_" gradientUnits="userSpaceOnUse" x1="-2361.0059" y1="-12883.3086" x2="-2346.2319" y2="-12883.3086" gradientTransform="matrix(0.3571 -0.9341 0.9341 0.3571 12896.3457 2379.9727)">
					<stop  offset="0" style="stop-color:#604830"/>
					<stop  offset="1" style="stop-color:#150E0A"/>
				</linearGradient>
				<path style="fill-rule:evenodd;clip-rule:evenodd;fill:url(#SVGID_26_);" d="M25.1-18.65c-0.267-0.434-1.167-1.184-2.7-2.25
					c-1.333-0.967-2.3-1.6-2.9-1.9c-0.333-0.167-0.967-0.434-1.9-0.8c-1-0.366-1.633-0.566-1.9-0.6c0.3,0.6,0.45,1.316,0.45,2.15
					l-0.05,3.95l0.9,0.15c1.8-0.9,3.233-1.483,4.3-1.75l1.6-0.4c1.133,2.667,1.95,5,2.45,7l0.4,0.25L25.7-15.3
					C25.7-16.9,25.5-18.017,25.1-18.65z"/>
				<path style="fill-rule:evenodd;clip-rule:evenodd;fill:#17100A;" d="M18.6-21l-0.05,0.9l-1.4-0.35
					c-0.167,0.633-0.25,1.05-0.25,1.25v1.2l0.1,0.05c1.8-0.9,3.233-1.483,4.3-1.75l1.6-0.4c1.133,2.667,1.95,5,2.45,7l0.4,0.25
					l-0.05-2.75l-0.8-0.85l0.45-0.95l-1.3-2.25c-0.066-0.066-0.433-0.35-1.1-0.85l-0.35-0.1L18.6-21z"/>
			</g>
			<g>
				<linearGradient id="SVGID_27_" gradientUnits="userSpaceOnUse" x1="0.4502" y1="-4.4678" x2="24.6499" y2="-4.4678">
					<stop  offset="0" style="stop-color:#ACE82A"/>
					<stop  offset="1" style="stop-color:#7FA725"/>
				</linearGradient>
				<path style="fill-rule:evenodd;clip-rule:evenodd;fill:url(#SVGID_27_);" d="M23.1-4.25c-0.5-0.3-1.784-0.966-3.85-2
					c-1.9-0.9-2.934-1.45-3.1-1.65C15.217-7.834,12.3-7.534,7.4-7c-3.733,0.4-6.05,0.567-6.95,0.5C0.517-6.334,0.667-6.134,0.9-5.9
					c0.967,0.667,2.5,1.566,4.6,2.7c2.533,1.4,4.167,2.116,4.9,2.15c2.233,0.1,6.1-0.3,11.6-1.2c1.4-0.2,2.283-0.466,2.65-0.8
					C24.283-3.417,23.767-3.817,23.1-4.25z"/>
			</g>
			<g>

					<radialGradient id="SVGID_28_" cx="14.0498" cy="-3.7505" r="7.5" gradientTransform="matrix(1 0 0 -0.35 0 -5.063)" gradientUnits="userSpaceOnUse">
					<stop  offset="0.2157" style="stop-color:#000000;stop-opacity:0.3765"/>
					<stop  offset="0.8667" style="stop-color:#000000;stop-opacity:0"/>
				</radialGradient>
				<path style="fill-rule:evenodd;clip-rule:evenodd;fill:url(#SVGID_28_);" d="M21.55-3.75c0-0.733-0.733-1.35-2.2-1.85
					c-1.467-0.5-3.233-0.75-5.3-0.75c-2.066,0-3.833,0.25-5.3,0.75s-2.2,1.117-2.2,1.85S7.283-2.4,8.75-1.9
					c1.467,0.533,3.233,0.8,5.3,0.8c2.067,0,3.833-0.267,5.3-0.8C20.816-2.4,21.55-3.017,21.55-3.75z"/>
				<path style="fill-rule:evenodd;clip-rule:evenodd;fill:#4C3C3F;" d="M13.45-0.9c0.7,0.367,1.4,0.467,2.1,0.3
					c1.067-0.3,1.467-0.517,1.2-0.65c-0.167-0.033-0.4-0.15-0.7-0.35L15.5-2.05l1,0.1c0.133,0.033,0.367,0.2,0.7,0.5
					c0.333,0.3,0.633,0.466,0.9,0.5c0.433,0.1,0.833,0.066,1.2-0.1c0.434-0.2,0.667-0.5,0.7-0.9l0.05-0.85
					c-0.2,0.633-0.583,0.883-1.15,0.75c-0.333-0.1-0.6-0.417-0.8-0.95c-0.133-0.267-0.217-0.517-0.25-0.75
					C17.483-4.117,17-4.217,16.4-4.05c-0.466,0.133-0.883,0.167-1.25,0.1c-0.433-0.067-0.683-0.284-0.75-0.65
					c-0.067-0.566,0-0.983,0.2-1.25C13.9-6.117,13.367-6,13-5.5c-0.233,0.3-0.4,0.6-0.5,0.9l-0.1,0.3c-0.2-0.067-0.4-0.167-0.6-0.3
					c-0.4-0.233-0.616-0.466-0.65-0.7L11.1-5.95c-1,0.333-1.5,0.75-1.5,1.25v0.75c-0.167-0.134-0.333-0.3-0.5-0.5
					C8.767-4.784,8.583-5.034,8.55-5.2L8.5-5.55c-0.4,0.167-0.767,0.367-1.1,0.6c-0.7,0.533-0.95,1.033-0.75,1.5
					C6.883-2.884,7.233-2.467,7.7-2.2c0.366,0.233,0.75,0.316,1.15,0.25L9.8-2l0.5,0.65c0.434,0.434,0.884,0.7,1.35,0.8
					c0.8,0.167,1.45,0.083,1.95-0.25c-0.133,0-0.284-0.017-0.45-0.05c-0.3-0.1-0.466-0.216-0.5-0.35L12.6-1.5L13.45-0.9z"/>
				<g>
					<path style="fill-rule:evenodd;clip-rule:evenodd;fill:#302727;" d="M14.9-3.05c-0.164,0.082-0.314,0.115-0.45,0.1
						c0.71,0.26,1.26,0.36,1.65,0.3l0.5-0.1l0.3-0.2c0.133,0,0.233,0.066,0.3,0.2c0.033,0.1,0.083,0.233,0.15,0.4
						c0.267,0.534,0.466,0.817,0.6,0.85v-0.1c0.167,0.267,0.467,0.4,0.9,0.4h0.7c0.267-0.167,0.417-0.417,0.45-0.75l0.05-0.85
						c-0.2,0.633-0.583,0.883-1.15,0.75c-0.333-0.1-0.6-0.417-0.8-0.95c-0.133-0.267-0.217-0.517-0.25-0.75
						C17.483-4.117,17-4.217,16.4-4.05c-0.466,0.133-0.883,0.167-1.25,0.1c-0.433-0.067-0.683-0.284-0.75-0.65
						c-0.067-0.566,0-0.983,0.2-1.25C13.9-6.117,13.367-6,13-5.5c-0.267,0.3-0.434,0.583-0.5,0.85c0.267-0.267,0.467-0.417,0.6-0.45
						c0,0.267,0.033,0.467,0.1,0.6c0.1-0.233,0.167-0.35,0.2-0.35c0.133,0.2,0.284,0.567,0.45,1.1C14.15-3.351,14.5-3.117,14.9-3.05
						z"/>
					<path style="fill-rule:evenodd;clip-rule:evenodd;fill:#302727;" d="M12.25-4.351L12.2-4.4c-0.667-0.233-1.017-0.533-1.05-0.9
						L11.1-5.95c-0.567,0.2-0.983,0.45-1.25,0.75c0.133,0.033,0.267,0.167,0.4,0.4c0,0.167,0.033,0.316,0.1,0.45
						c0.133,0.167,0.317,0.3,0.55,0.4C10.667-4.017,10.483-4.034,10.35-4c0.3,0.367,0.667,0.583,1.1,0.65L10.9-3.3
						c0.1,0.1,0.433,0.3,1,0.6c0.2,0.133,0.633,0.2,1.3,0.2C12.566-2.834,12.25-3.45,12.25-4.351z"/>
					<path style="fill-rule:evenodd;clip-rule:evenodd;fill:#302727;" d="M14.35-1.851V-1.9l-0.3,0.05c0,0.134,0.233,0.434,0.7,0.9
						c0.038-0.077,0.047-0.144,0.025-0.2c0.177,0.205,0.353,0.321,0.525,0.35l0.55,0.1l0.9-0.4L16.7-1.25l-0.65-0.35l-0.4-0.3
						C15.55-1.867,15.117-1.851,14.35-1.851z"/>
					<path style="fill-rule:evenodd;clip-rule:evenodd;fill:#302727;" d="M10.35-2.3h0.45c-0.7-0.3-1.167-0.65-1.4-1.05L9.65-3.4
						C9.583-3.567,9.467-3.834,9.3-4.2C8.833-4.667,8.583-5,8.55-5.2L8.5-5.5c-0.233,0.034-0.417,0.15-0.55,0.35
						c-0.2,0.2-0.333,0.434-0.4,0.7c-0.066,0.167-0.066,0.35,0,0.55C7.587-3.751,7.638-3.634,7.7-3.55
						C7.6-3.617,7.517-3.65,7.45-3.65C7.483-3.484,7.566-3.334,7.7-3.2C7.789-3.089,7.889-3.022,8-3H7.55
						c0.1,0.133,0.267,0.233,0.5,0.3C8.217-2.634,8.434-2.567,8.7-2.5L8.3-2.4c0.033,0.033,0.4,0.05,1.1,0.05
						C9.6-2.317,9.917-2.3,10.35-2.3z"/>
					<path style="fill-rule:evenodd;clip-rule:evenodd;fill:#302727;" d="M12.75-0.55h0.1l0.25-0.05c0-0.066-0.1-0.2-0.3-0.4
						l-0.05-0.1H12.7c-0.367-0.466-0.6-0.716-0.7-0.75l-0.75-0.2C11.25-1.217,11.75-0.717,12.75-0.55z"/>
					<path style="fill-rule:evenodd;clip-rule:evenodd;fill:#6D585B;" d="M11.65-0.55h0.15c-0.267-0.1-0.483-0.267-0.65-0.5
						L11.2-0.9c-0.067-0.033-0.134-0.15-0.2-0.35L10.85-1.7c-0.034,0.167-0.067,0.3-0.1,0.4c-0.133-0.233-0.233-0.4-0.3-0.5
						C10.383-1.934,10.316-2,10.25-2c-0.1,0-0.2,0-0.3,0c-0.067,0-0.3-0.05-0.7-0.15C8.684-2.217,8.383-2.267,8.35-2.3L7.9-2.55
						C7.7-2.65,7.55-2.767,7.45-2.9C7.083-3.4,6.934-3.967,7-4.601L6.95-4.55c-0.1,0.566-0.217,0.883-0.35,0.95l0.05,0.15
						C6.883-2.884,7.233-2.467,7.7-2.2c0.366,0.233,0.75,0.316,1.15,0.25L9.8-2l0.5,0.65C10.733-0.917,11.184-0.65,11.65-0.55z"/>
					<path style="fill-rule:evenodd;clip-rule:evenodd;fill:#6D585B;" d="M11-2.75l0.15-0.05c-0.233-0.1-0.517-0.284-0.85-0.55
						c-0.267-0.267-0.483-0.566-0.65-0.9L9.6-4.55v0.6L9.55-4v0.05L9.3-4.2c0.167,0.366,0.283,0.633,0.35,0.8L9.4-3.351
						c0.233,0.4,0.7,0.75,1.4,1.05c0.5,0.167,0.917,0.25,1.25,0.25l1.05,0.1c-0.433-0.134-0.784-0.233-1.05-0.3
						C11.383-2.484,11.033-2.65,11-2.75z"/>
					<path style="fill-rule:evenodd;clip-rule:evenodd;fill:#6D585B;" d="M13.25-1.601L13.2-1.3c-0.067,0-0.167-0.067-0.3-0.2
						L13-1.2c0.633,0.466,1.283,0.683,1.95,0.65l-0.25-0.05c-0.233-0.066-0.483-0.233-0.75-0.5
						C13.617-1.367,13.383-1.534,13.25-1.601z"/>
					<path style="fill-rule:evenodd;clip-rule:evenodd;fill:#6D585B;" d="M14.75-2.25c0.1-0.066,0.283-0.1,0.55-0.1
						C15-2.417,14.733-2.534,14.5-2.7c-0.133-0.1-0.316-0.284-0.55-0.55c-0.2-0.267-0.384-0.45-0.55-0.55
						c0.2,0.367,0.25,0.633,0.15,0.8l-0.9-0.6c0.133,0.634,0.467,1.1,1,1.4c0.267,0.167,0.5,0.267,0.7,0.3v0.05
						c0.767,0,1.2-0.017,1.3-0.05L15.5-2.05L16.15-2l0.55-0.1v-0.15c-0.367,0-0.7,0.05-1,0.15C15.267-2.101,14.95-2.15,14.75-2.25z"
						/>
					<path style="fill-rule:evenodd;clip-rule:evenodd;fill:#6D585B;" d="M17.5-1.2l0.15,0.1l0.6,0.2
						c-0.5-0.367-0.95-0.767-1.35-1.2l-0.25-0.25l0.05,0.1v0.15l0.05,0.3L17.5-1.2z"/>
				</g>
			</g>
			<g>
				<path style="fill-rule:evenodd;clip-rule:evenodd;fill:#546C1B;" d="M20.35-13.05v-1.3c-0.133-1-0.534-1.767-1.2-2.3
					c-0.733-0.633-1.4-0.733-2-0.3c-0.533,0.4-0.817,1.066-0.85,2c-0.033,0.733,0.184,1.283,0.65,1.65
					c0.2,0.2,0.417,0.316,0.65,0.35L20.35-13.05z"/>
				<path style="fill-rule:evenodd;clip-rule:evenodd;fill:#546C1B;" d="M24.25-9.8l1.3,0.3l0.2-2.6c0-0.7-0.2-1.133-0.6-1.3
					c-0.367-0.167-0.65-0.083-0.85,0.25c-0.233,0.367-0.433,0.917-0.6,1.65l-0.15,1L24.25-9.8z"/>
			</g>
			<g>
				<g>
					<path style="fill-rule:evenodd;clip-rule:evenodd;fill:#445C17;" d="M19.05-15.3c0-0.5-0.1-0.917-0.3-1.25
						c-0.233-0.333-0.5-0.5-0.8-0.5c-0.3,0-0.55,0.167-0.75,0.5c-0.233,0.333-0.35,0.75-0.35,1.25c0,0.466,0.117,0.867,0.35,1.2
						c0.2,0.333,0.45,0.5,0.75,0.5c0.3,0,0.566-0.167,0.8-0.5C18.95-14.434,19.05-14.834,19.05-15.3z"/>

						<radialGradient id="SVGID_29_" cx="17.7002" cy="-15.3506" r="1.1001" gradientTransform="matrix(1 0 0 -1 0 -30.7012)" gradientUnits="userSpaceOnUse">
						<stop  offset="0" style="stop-color:#FFFEB2"/>
						<stop  offset="1" style="stop-color:#D8C156"/>
					</radialGradient>
					<path style="fill-rule:evenodd;clip-rule:evenodd;fill:url(#SVGID_29_);" d="M18.6-15.351c0-0.366-0.083-0.667-0.25-0.9
						s-0.383-0.35-0.65-0.35c-0.233,0-0.45,0.117-0.65,0.35c-0.167,0.233-0.25,0.534-0.25,0.9c0,0.367,0.083,0.684,0.25,0.95
						c0.167,0.233,0.384,0.35,0.65,0.35s0.483-0.117,0.65-0.35C18.517-14.667,18.6-14.984,18.6-15.351z"/>
				</g>
				<g>
					<path style="fill-rule:evenodd;clip-rule:evenodd;fill:#445C17;" d="M25.5-11.45c0-0.434-0.066-0.817-0.2-1.15
						c-0.167-0.333-0.333-0.5-0.5-0.5c-0.2,0-0.366,0.167-0.5,0.5c-0.167,0.333-0.25,0.717-0.25,1.15c0,0.433,0.083,0.816,0.25,1.15
						c0.134,0.3,0.3,0.45,0.5,0.45c0.167,0,0.333-0.15,0.5-0.45C25.434-10.634,25.5-11.017,25.5-11.45z"/>

						<radialGradient id="SVGID_30_" cx="24.6001" cy="-11.4502" r="0.9373" gradientTransform="matrix(1 0 0 -1 0 -22.9004)" gradientUnits="userSpaceOnUse">
						<stop  offset="0" style="stop-color:#FFFEB2"/>
						<stop  offset="1" style="stop-color:#D8C156"/>
					</radialGradient>
					<path style="fill-rule:evenodd;clip-rule:evenodd;fill:url(#SVGID_30_);" d="M25.2-11.45c0-0.8-0.2-1.2-0.6-1.2
						c-0.167,0-0.3,0.117-0.4,0.35c-0.134,0.233-0.2,0.517-0.2,0.85c0,0.333,0.066,0.616,0.2,0.85c0.1,0.233,0.233,0.35,0.4,0.35
						C25-10.25,25.2-10.65,25.2-11.45z"/>
				</g>
			</g>
			<g>
				<linearGradient id="SVGID_31_" gradientUnits="userSpaceOnUse" x1="16.2124" y1="-12.4497" x2="20.8872" y2="-12.4497">
					<stop  offset="0" style="stop-color:#7AA41C"/>
					<stop  offset="1" style="stop-color:#485F14"/>
				</linearGradient>
				<path style="fill-rule:evenodd;clip-rule:evenodd;fill:url(#SVGID_31_);" d="M20.6-13.3c-0.4-0.233-0.817-0.467-1.25-0.7
					c-1-0.6-1.933-0.9-2.8-0.9c-0.1,0-0.183,0.316-0.25,0.95c-0.1,0.667-0.1,1.3,0,1.9c0.1,0.633,0.283,1.1,0.55,1.4
					c0.3,0.3,0.733,0.5,1.3,0.6c1.067,0.2,1.833-0.184,2.3-1.15c0.3-0.567,0.45-1.15,0.45-1.75C20.9-13.05,20.8-13.167,20.6-13.3z"
					/>
				<linearGradient id="SVGID_32_" gradientUnits="userSpaceOnUse" x1="23.2373" y1="-9.1753" x2="25.6623" y2="-9.1753">
					<stop  offset="0" style="stop-color:#7AA41C"/>
					<stop  offset="1" style="stop-color:#485F14"/>
				</linearGradient>
				<path style="fill-rule:evenodd;clip-rule:evenodd;fill:url(#SVGID_32_);" d="M24.35-7.2c0.933,0.267,1.367-0.534,1.3-2.4
					c-0.033-0.333-0.083-0.55-0.15-0.65c-0.1-0.133-0.367-0.3-0.8-0.5c-0.733-0.3-1.167-0.45-1.3-0.45
					c-0.067,0-0.117,0.267-0.15,0.8c-0.033,0.566-0.033,1.1,0,1.6C23.35-7.867,23.717-7.334,24.35-7.2z"/>
			</g>
			<g>
				<path style="fill-rule:evenodd;clip-rule:evenodd;fill:#B5DA62;" d="M15.05-8.2c-0.4,0.1-3.233,0.417-8.5,0.95l-6.05,1l7.55-0.8
					c1.4-0.167,3.017-0.317,4.85-0.45s2.9-0.167,3.2-0.1c0.3,0.034,1.6,0.65,3.9,1.85c1.434,0.767,2.983,1.667,4.65,2.7
					c-0.067-0.4-1.45-1.333-4.15-2.8c-2.7-1.5-4.083-2.417-4.15-2.75c-0.067-0.366-0.067-4.517,0-12.45
					c-0.034-1.7-0.25-2.75-0.65-3.15l0.15,0.6c0.1,0.267,0.133,2.267,0.1,6c-0.033,3.6-0.083,5.967-0.15,7.1
					c-0.066,1.1-0.133,1.733-0.2,1.9C15.533-8.4,15.35-8.267,15.05-8.2z"/>
				<path style="fill-rule:evenodd;clip-rule:evenodd;fill:#A1774F;" d="M15.95-18.101h0.45l-0.05-2.95
					c-0.034-1.7-0.25-2.75-0.65-3.15l0.15,0.6C15.917-23.4,15.95-21.567,15.95-18.101z"/>
			</g>
		</g>
	</g>
</symbol>
<symbol  id="cubimal_x5F_mc" viewBox="-0.385 -26.564 31.735 26.147">
	<g id="Layer_5_1_">
	</g>
	<g id="Layer_4_2_">
	</g>
	<g id="Layer_2_copy_2_">
	</g>
	<g id="Layer_2_2_">
	</g>
	<g id="Layer_1_9_">

			<use xlink:href="#cubimal_x5F_scene1"  width="31.735" height="26.147" x="0.015" y="-26.614" transform="matrix(1 0 0 1 -0.3999 0.0498)" style="overflow:visible;"/>
	</g>
	<g id="Layer_6_1_">
	</g>
</symbol>
<symbol  id="cubimal_x5F_scene1" viewBox="0.015 -26.614 31.735 26.147">
	<g id="Layer_1_8_">

			<use xlink:href="#winder_x5F_static"  width="10.185" height="8.474" x="0.015" y="-8.472" transform="matrix(1 0 0 1 0 -7.9502)" style="overflow:visible;"/>

			<use xlink:href="#cubimal_1_"  width="29.484" height="26.147" x="-3.734" y="-26.614" transform="matrix(1 0 0 1 6 0)" style="overflow:visible;"/>
	</g>
</symbol>
<symbol  id="winder_x5F_static" viewBox="0.015 -8.472 10.185 8.474">
	<g id="Layer_4_1_">

			<use xlink:href="#winderedge"  width="4.537" height="8.127" x="0.015" y="-8.126" transform="matrix(1 0 0 1 0.7002 0)" style="overflow:visible;"/>
	</g>
	<g id="Layer_3_1_">

			<use xlink:href="#winderfacehighlight"  width="4.573" height="8.174" x="0.016" y="-8.173" transform="matrix(1 0 0 1 0.2002 -0.2002)" style="overflow:visible;"/>
	</g>
	<g id="Layer_2_copy_1_">

			<use xlink:href="#winderface1a"  width="4.573" height="8.174" x="0.015" y="-8.172" transform="matrix(1 0 0 1 0 -0.2998)" style="overflow:visible;"/>
	</g>
	<g id="Layer_1_7_">
		<g>

				<linearGradient id="SVGID_33_" gradientUnits="userSpaceOnUse" x1="1516.7368" y1="-17621.7734" x2="1518.0562" y2="-17621.7734" gradientTransform="matrix(-0.1705 -0.9854 0.9854 -0.1705 17629.7129 -1515.4766)">
				<stop  offset="0" style="stop-color:#8F8F8F"/>
				<stop  offset="0.2275" style="stop-color:#E8E8E8"/>
				<stop  offset="1" style="stop-color:#696969"/>
			</linearGradient>
			<path style="fill-rule:evenodd;clip-rule:evenodd;fill:url(#SVGID_33_);" d="M10.2-6.3L4.8-5.5C4.5-5.533,4.351-5.366,4.351-5
				c0,0.233,0.083,0.4,0.25,0.5c0.066,0.066,0.133,0.1,0.2,0.1l5.4-0.8V-6.3z"/>
		</g>
	</g>
</symbol>
<symbol  id="winderedge" viewBox="0.015 -8.126 4.537 8.127">
	<g id="Layer_1_4_">
		<g>

				<linearGradient id="SVGID_34_" gradientUnits="userSpaceOnUse" x1="7.2109" y1="-16351.5195" x2="14.0359" y2="-16351.5195" gradientTransform="matrix(1.465202e-004 -1 1 -0.001 16353.8027 -9.1782)">
				<stop  offset="0" style="stop-color:#8F8F8F"/>
				<stop  offset="0.2275" style="stop-color:#E8E8E8"/>
				<stop  offset="1" style="stop-color:#696969"/>
			</linearGradient>
			<path style="fill-rule:evenodd;clip-rule:evenodd;fill:url(#SVGID_34_);" d="M3.5-5.899c0.066,0.6-0.083,0.983-0.45,1.15L2.6-4.7
				C2.367-4.7,2.167-4.733,2-4.8c-0.533-0.167-0.833-0.533-0.9-1.1c-0.034-0.5,0.1-0.85,0.4-1.05c0.434-0.233,0.867-0.233,1.3,0
				C3.2-6.716,3.434-6.366,3.5-5.899z M0.05-1.25c0.1,0.8,0.5,1.216,1.2,1.25c1.367,0.033,2.333-0.633,2.9-2
				c0.5-1.233,0.534-2.05,0.1-2.45c0.434-0.533,0.4-1.333-0.1-2.4c-0.567-1.167-1.533-1.533-2.9-1.1c-0.7,0.233-1.1,0.767-1.2,1.6
				c-0.133,0.867,0.117,1.533,0.75,2L1.25-4L0.8-3.55C0.167-2.85-0.083-2.083,0.05-1.25z M3.5-2.75C3.434-2.25,3.2-1.833,2.8-1.5
				C2.367-1.1,1.934-0.966,1.5-1.1c-0.3-0.133-0.434-0.467-0.4-1C1.167-2.666,1.467-3.116,2-3.45l0.6-0.3L3.05-3.8
				C3.417-3.766,3.566-3.416,3.5-2.75z"/>
		</g>
	</g>
</symbol>
<symbol  id="winderface1a" viewBox="0.015 -8.172 4.573 8.174">
	<g id="Layer_1_2_">

			<linearGradient id="SVGID_35_" gradientUnits="userSpaceOnUse" x1="-1921.0518" y1="-13815.4893" x2="-1911.8795" y2="-13815.4893" gradientTransform="matrix(0.2726 -0.9621 0.9621 0.2726 13816.6416 1918.4072)">
			<stop  offset="0" style="stop-color:#E8E8E8"/>
			<stop  offset="1" style="stop-color:#878787"/>
		</linearGradient>
		<path style="fill-rule:evenodd;clip-rule:evenodd;fill:url(#SVGID_35_);" d="M2.05-4.8c-0.566-0.133-0.867-0.483-0.9-1.05
			c-0.033-0.533,0.1-0.9,0.4-1.1c0.4-0.267,0.817-0.267,1.25,0C3.2-6.717,3.433-6.367,3.5-5.9c0.133,0.633,0,1-0.4,1.1L2.65-4.7
			L2.05-4.8z M0.05-1.25C0.183-0.45,0.6-0.033,1.3,0c1.367,0.033,2.333-0.633,2.9-2c0.5-1.233,0.517-2.05,0.05-2.45
			c0.467-0.5,0.45-1.3-0.05-2.4C3.633-8.05,2.667-8.433,1.3-8C0.6-7.733,0.183-7.183,0.05-6.35c-0.133,0.867,0.117,1.533,0.75,2
			L1.3-4L0.8-3.55C0.167-2.85-0.083-2.083,0.05-1.25z M3.5-2.75C3.433-2.25,3.2-1.833,2.8-1.5C2.367-1.1,1.95-0.967,1.55-1.1
			c-0.3-0.133-0.433-0.467-0.4-1c0.033-0.6,0.333-1.05,0.9-1.35l0.6-0.3L3.1-3.8C3.467-3.767,3.6-3.417,3.5-2.75z"/>
	</g>
</symbol>
<symbol  id="winderfacehighlight" viewBox="0.016 -8.173 4.573 8.174">
	<g id="Layer_1_3_">

			<linearGradient id="SVGID_36_" gradientUnits="userSpaceOnUse" x1="-1921.0518" y1="-13815.4893" x2="-1911.8795" y2="-13815.4893" gradientTransform="matrix(0.2726 -0.9621 0.9621 0.2726 13816.6416 1918.4072)">
			<stop  offset="0" style="stop-color:#E8E8E8"/>
			<stop  offset="1" style="stop-color:#EDEDED"/>
		</linearGradient>
		<path style="fill-rule:evenodd;clip-rule:evenodd;fill:url(#SVGID_36_);" d="M2.05-4.8c-0.567-0.133-0.867-0.483-0.9-1.05
			c-0.033-0.533,0.1-0.9,0.4-1.1c0.4-0.267,0.817-0.267,1.25,0C3.2-6.717,3.434-6.367,3.5-5.9c0.1,0.6-0.034,0.967-0.4,1.1L2.65-4.7
			L2.05-4.8z M0.05-1.25C0.184-0.45,0.601-0.034,1.3,0c1.367,0.034,2.333-0.633,2.9-2c0.5-1.233,0.517-2.05,0.05-2.45
			c0.466-0.5,0.45-1.3-0.05-2.4C3.634-8.05,2.667-8.434,1.3-8c-0.7,0.267-1.117,0.817-1.25,1.65c-0.133,0.867,0.117,1.534,0.75,2
			L1.3-4L0.8-3.55C0.167-2.851-0.083-2.084,0.05-1.25z M1.55-1.101c-0.3-0.133-0.433-0.466-0.4-1c0.033-0.6,0.333-1.05,0.9-1.35
			l0.6-0.3l0.45-0.05c0.366,0.033,0.5,0.383,0.4,1.05C3.434-2.25,3.2-1.834,2.8-1.5C2.367-1.101,1.95-0.967,1.55-1.101z"/>
	</g>
</symbol>
<use xlink:href="#cubimal_x5F_mc"  width="31.735" height="26.147" id="cubimal" x="-0.385" y="-26.564" transform="matrix(1 0 0 -1 0.3999 -0.3999)" style="overflow:visible;"/>
</svg>
