{
	"Standard": [
		"angel",
		"angry",
		"cap",
		"clown",
		"confused",
		"cool",
		"crying",
		"cyber",
		"depression",
		"dislike",
		"eyeglass",
		"geek",
		"happy",
		"humor",
		"kiss",
		"laughing",
		"like",
		"love",
		"money",
		"mustache",
		"robot",
		"sleeping",
		"smart",
		"star",
		"sunglass",
		"sunglass_2",
		"sunglass_3",
		"surprise",
		"tongue",
		"wink",
		"cat_happy",
		"cat_tongue",
		"cat_plotting",
		"thumbsup",
		"thumbsdown",
		"heart",
		"rainbow"
	],
	"CoU": [
		"cou",
		"bag_monochrome",
		"currant",
		"energy_negative",
		"envelope",
		"img",
		"imgbutton",
		"mood",
		"shrine_monochrome",
		"signpost",
		"zoom_in",
		"zoom_out"
	],
	"Giants": [
		"alph",
		"cosma",
		"friendly",
		"grendaline",
		"humbaba",
		"lem",
		"mab",
		"pot",
		"spriggan",
		"tii",
		"zille",
		"purple_flower"
	],
	"Inhabitants": [
		"batterfly",
		"beryl",
		"bureaucrat",
		"cactus",
		"caterpillar",
		"chick",
		"chicken",
		"cooking_vendor",
		"crab",
		"deimaginator",
		"dustbunny",
		"emobear",
		"flamingo",
		"forehorseman",
		"fox",
		"fox_ranger",
		"gardening_vendor",
		"guano",
		"gwendolyn",
		"hell_bartender",
		"hogtied_piggy_explorer",
		"juju_bandit",
		"juju_grandma",
		"kitty",
		"maintenance_bot",
		"myopic_frog",
		"piggy",
		"piggy_explorer",
		"piglet",
		"randomkindness",
		"rare_item_vendor",
		"salmon",
		"smuggler",
		"squid",
		"street_spirit",
		"street_spirit_firebog",
		"street_spirit_ix",
		"tool_vendor",
		"widget",
		"yoga_frog"
	],
	"Cubimals": [
		"cubi_batterfly",
		"cubi_bureaucrat",
		"cubi_butler",
		"cubi_butterfly",
		"cubi_cactus",
		"cubi_chick",
		"cubi_crab",
		"cubi_craftybot",
		"cubi_deimaginator",
		"cubi_dustbunny",
		"cubi_emobear",
		"cubi_firebogstreetspirit",
		"cubi_firefly",
		"cubi_fox",
		"cubi_foxranger",
		"cubi_frog",
		"cubi_gardeningtoolsvendor",
		"cubi_gnome",
		"cubi_greeterbot",
		"cubi_groddlestreetspirit",
		"cubi_gwendolyn",
		"cubi_helga",
		"cubi_hellbartender",
		"cubi_ilmenskiejones",
		"cubi_juju",
		"cubi_magicrock",
		"cubi_maintenancebot",
		"cubi_mealvendor",
		"cubi_phantom",
		"cubi_piggy",
		"cubi_rook",
		"cubi_rube",
		"cubi_scionofpurple",
		"cubi_senorfunpickle",
		"cubi_sloth",
		"cubi_smuggler",
		"cubi_snoconevendor",
		"cubi_squid",
		"cubi_toolvendor",
		"cubi_trisor",
		"cubi_unclefriendly",
		"cubi_uraliastreetspirit",
		"cubi_yeti",
		"cubimal_package",
		"cubimal_package_2"
	],
	"Food": [
		"apple",
		"awesome_stew",
		"bacon",
		"banana",
		"bean",
		"birch_candy",
		"broccoli",
		"butterfly_butter",
		"carrot",
		"cheese",
		"cheese_stinky",
		"cheese_very_stinky",
		"cheese_very_very_stinky",
		"cherry",
		"corn",
		"cucumber",
		"egg",
		"flummery",
		"grain",
		"grilled_cheese",
		"ice",
		"lemon",
		"meat",
		"pickle",
		"potato",
		"pumpkin",
		"rice",
		"sno_cone_rainbow",
		"spinach",
		"tomato",
		"waffles"
	],
	"Drink": [
		"beer",
		"bubble_tea",
		"coffee",
		"cosmapolitan",
		"exotic_juice",
		"fruity_juice",
		"hooch",
		"lemon_juice",
		"milk"
	],
	"Music Blocks": [
		"musicblock_b_brown_01",
		"musicblock_d_blue_02",
		"musicblock_d_green_03",
		"musicblock_d_red_04",
		"musicblock_x_shiny_05",
		"musicblock_gng",
		"musicblock_stoot",
		"musicblock_trumpets"
	]
}
